0000.000 (0) Opened log file at time: Fri, 07 Feb 2020 21:24:12 +0000 on https://ready2go.its2020.tk
0000.007 (0) UpdraftPlus WordPress backup plugin (https://updraftplus.com): 1.16.21 WP: 5.3.2 PHP: 7.2.24-0ubuntu0.18.04.2 (apache2handler, Linux ubuntu-s-1vcpu-3gb-fra1-01 4.15.0-76-generic #86-Ubuntu SMP Fri Jan 17 17:24:28 UTC 2020 x86_64) MySQL: 5.7.29-0ubuntu0.18.04.1 WPLANG: it_IT Server: Apache/2.4.29 (Ubuntu) safe_mode: 0 max_execution_time: 900 memory_limit: 512M (used: 17.2M | 18M) multisite: N openssl: OpenSSL 1.1.1  11 Sep 2018 mcrypt: N LANG: C ZipArchive::addFile: Y
0000.010 (0) Free space on disk containing Updraft's temporary directory: 45021.8 MB
0000.017 (0) Tasks: Backup files: 1 (schedule: daily) Backup DB:  (schedule: daily)
0000.021 (0) Processed schedules. Combining jobs from identical schedules. Tasks now: Backup files: 1 Backup DB: 1
0000.030 (0) Requesting semaphore lock (fd) (apparently via scheduler: last_scheduled_action_called_at=1581024071, seconds_ago=86581)
0000.050 (0) Set semaphore last lock (fd) time to 2020-02-07 21:24:12
0000.054 (0) Semaphore lock (fd) complete
0000.068 (0) Backup run: resumption=0, nonce=a9423c9369ff, file_nonce=a9423c9369ff begun at=1581110652 (0s ago), job type=backup
0000.075 (0) Scheduling a resumption (1) after 300 seconds (1581110952) in case this run gets aborted
0000.093 (0) Checking if we have a zip executable available
0000.102 (0) Creation of backups of directories: beginning
0000.115 (0) Beginning creation of dump of plugins (split every: 400 MB)
0000.444 (0) Total entities for the zip file: 1672 directories, 8543 files (0 skipped as non-modified), 146.8 MB
0000.464 (0) Zip: backup_2020-02-07-2224_Armando039_Story_a9423c9369ff-plugins.zip.tmp: 100 files added (on-disk size: 0 KB)
0000.473 (0) Zip: backup_2020-02-07-2224_Armando039_Story_a9423c9369ff-plugins.zip.tmp: 200 files added (on-disk size: 0 KB)
0000.483 (0) Zip: backup_2020-02-07-2224_Armando039_Story_a9423c9369ff-plugins.zip.tmp: 300 files added (on-disk size: 0 KB)
0000.493 (0) Zip: backup_2020-02-07-2224_Armando039_Story_a9423c9369ff-plugins.zip.tmp: 400 files added (on-disk size: 0 KB)
0000.503 (0) Zip: backup_2020-02-07-2224_Armando039_Story_a9423c9369ff-plugins.zip.tmp: 500 files added (on-disk size: 0 KB)
0000.507 (0) Adding batch to zip file (UpdraftPlus_ZipArchive): over 500 files added on this batch (11.6 MB, 8543 files batched, 501 (501) added so far); re-opening (prior size: 0 KB)
0001.538 (0) Zip: backup_2020-02-07-2224_Armando039_Story_a9423c9369ff-plugins.zip.tmp: 600 files added (on-disk size: 8009.6 KB)
0001.547 (0) Zip: backup_2020-02-07-2224_Armando039_Story_a9423c9369ff-plugins.zip.tmp: 700 files added (on-disk size: 8009.6 KB)
0001.554 (0) Zip: backup_2020-02-07-2224_Armando039_Story_a9423c9369ff-plugins.zip.tmp: 800 files added (on-disk size: 8009.6 KB)
0001.562 (0) Zip: backup_2020-02-07-2224_Armando039_Story_a9423c9369ff-plugins.zip.tmp: 900 files added (on-disk size: 8009.6 KB)
0001.572 (0) Zip: backup_2020-02-07-2224_Armando039_Story_a9423c9369ff-plugins.zip.tmp: 1000 files added (on-disk size: 8009.6 KB)
0001.577 (0) Adding batch to zip file (UpdraftPlus_ZipArchive): over 500 files added on this batch (15.9 MB, 8543 files batched, 501 (1002) added so far); re-opening (prior size: 8009.6 KB)
0004.278 (0) Zip: backup_2020-02-07-2224_Armando039_Story_a9423c9369ff-plugins.zip.tmp: 1100 files added (on-disk size: 12153.7 KB)
0004.287 (0) Zip: backup_2020-02-07-2224_Armando039_Story_a9423c9369ff-plugins.zip.tmp: 1200 files added (on-disk size: 12153.7 KB)
0004.296 (0) Zip: backup_2020-02-07-2224_Armando039_Story_a9423c9369ff-plugins.zip.tmp: 1300 files added (on-disk size: 12153.7 KB)
0004.319 (0) Zip: backup_2020-02-07-2224_Armando039_Story_a9423c9369ff-plugins.zip.tmp: 1400 files added (on-disk size: 12153.7 KB)
0004.330 (0) Zip: backup_2020-02-07-2224_Armando039_Story_a9423c9369ff-plugins.zip.tmp: 1500 files added (on-disk size: 12153.7 KB)
0004.335 (0) Adding batch to zip file (UpdraftPlus_ZipArchive): over 500 files added on this batch (12.5 MB, 8543 files batched, 501 (1503) added so far); re-opening (prior size: 12153.7 KB)
0008.241 (0) Zip: backup_2020-02-07-2224_Armando039_Story_a9423c9369ff-plugins.zip.tmp: 1600 files added (on-disk size: 17395.8 KB)
0008.251 (0) Zip: backup_2020-02-07-2224_Armando039_Story_a9423c9369ff-plugins.zip.tmp: 1700 files added (on-disk size: 17395.8 KB)
0008.262 (0) Zip: backup_2020-02-07-2224_Armando039_Story_a9423c9369ff-plugins.zip.tmp: 1800 files added (on-disk size: 17395.8 KB)
0008.269 (0) Zip: backup_2020-02-07-2224_Armando039_Story_a9423c9369ff-plugins.zip.tmp: 1900 files added (on-disk size: 17395.8 KB)
0008.276 (0) Zip: backup_2020-02-07-2224_Armando039_Story_a9423c9369ff-plugins.zip.tmp: 2000 files added (on-disk size: 17395.8 KB)
0008.281 (0) Adding batch to zip file (UpdraftPlus_ZipArchive): over 500 files added on this batch (7.2 MB, 8543 files batched, 501 (2004) added so far); re-opening (prior size: 17395.8 KB)
0009.235 (0) Zip: backup_2020-02-07-2224_Armando039_Story_a9423c9369ff-plugins.zip.tmp: 2100 files added (on-disk size: 20646.4 KB)
0009.242 (0) Zip: backup_2020-02-07-2224_Armando039_Story_a9423c9369ff-plugins.zip.tmp: 2200 files added (on-disk size: 20646.4 KB)
0009.249 (0) Zip: backup_2020-02-07-2224_Armando039_Story_a9423c9369ff-plugins.zip.tmp: 2300 files added (on-disk size: 20646.4 KB)
0009.258 (0) Zip: backup_2020-02-07-2224_Armando039_Story_a9423c9369ff-plugins.zip.tmp: 2400 files added (on-disk size: 20646.4 KB)
0009.265 (0) Zip: backup_2020-02-07-2224_Armando039_Story_a9423c9369ff-plugins.zip.tmp: 2500 files added (on-disk size: 20646.4 KB)
0009.270 (0) Adding batch to zip file (UpdraftPlus_ZipArchive): over 500 files added on this batch (3.6 MB, 8543 files batched, 501 (2505) added so far); re-opening (prior size: 20646.4 KB)
0010.014 (0) Zip: backup_2020-02-07-2224_Armando039_Story_a9423c9369ff-plugins.zip.tmp: 2600 files added (on-disk size: 21502.9 KB)
0010.023 (0) Zip: backup_2020-02-07-2224_Armando039_Story_a9423c9369ff-plugins.zip.tmp: 2700 files added (on-disk size: 21502.9 KB)
0010.031 (0) Zip: backup_2020-02-07-2224_Armando039_Story_a9423c9369ff-plugins.zip.tmp: 2800 files added (on-disk size: 21502.9 KB)
0010.039 (0) Zip: backup_2020-02-07-2224_Armando039_Story_a9423c9369ff-plugins.zip.tmp: 2900 files added (on-disk size: 21502.9 KB)
0010.048 (0) Zip: backup_2020-02-07-2224_Armando039_Story_a9423c9369ff-plugins.zip.tmp: 3000 files added (on-disk size: 21502.9 KB)
0010.054 (0) Adding batch to zip file (UpdraftPlus_ZipArchive): over 500 files added on this batch (4.9 MB, 8543 files batched, 501 (3006) added so far); re-opening (prior size: 21502.9 KB)
0010.760 (0) Zip: backup_2020-02-07-2224_Armando039_Story_a9423c9369ff-plugins.zip.tmp: 3100 files added (on-disk size: 23106.3 KB)
0010.769 (0) Zip: backup_2020-02-07-2224_Armando039_Story_a9423c9369ff-plugins.zip.tmp: 3200 files added (on-disk size: 23106.3 KB)
0010.780 (0) Zip: backup_2020-02-07-2224_Armando039_Story_a9423c9369ff-plugins.zip.tmp: 3300 files added (on-disk size: 23106.3 KB)
0010.789 (0) Zip: backup_2020-02-07-2224_Armando039_Story_a9423c9369ff-plugins.zip.tmp: 3400 files added (on-disk size: 23106.3 KB)
0010.798 (0) Zip: backup_2020-02-07-2224_Armando039_Story_a9423c9369ff-plugins.zip.tmp: 3500 files added (on-disk size: 23106.3 KB)
0010.802 (0) Adding batch to zip file (UpdraftPlus_ZipArchive): over 500 files added on this batch (9.7 MB, 8543 files batched, 501 (3507) added so far); re-opening (prior size: 23106.3 KB)
0012.182 (0) Zip: backup_2020-02-07-2224_Armando039_Story_a9423c9369ff-plugins.zip.tmp: 3600 files added (on-disk size: 27238 KB)
0012.190 (0) Zip: backup_2020-02-07-2224_Armando039_Story_a9423c9369ff-plugins.zip.tmp: 3700 files added (on-disk size: 27238 KB)
0012.201 (0) Zip: backup_2020-02-07-2224_Armando039_Story_a9423c9369ff-plugins.zip.tmp: 3800 files added (on-disk size: 27238 KB)
0012.214 (0) Zip: backup_2020-02-07-2224_Armando039_Story_a9423c9369ff-plugins.zip.tmp: 3900 files added (on-disk size: 27238 KB)
0012.225 (0) Zip: backup_2020-02-07-2224_Armando039_Story_a9423c9369ff-plugins.zip.tmp: 4000 files added (on-disk size: 27238 KB)
0012.231 (0) Adding batch to zip file (UpdraftPlus_ZipArchive): over 500 files added on this batch (4.2 MB, 8543 files batched, 501 (4008) added so far); re-opening (prior size: 27238 KB)
0012.955 (0) Zip: backup_2020-02-07-2224_Armando039_Story_a9423c9369ff-plugins.zip.tmp: 4100 files added (on-disk size: 28723.4 KB)
0012.964 (0) Zip: backup_2020-02-07-2224_Armando039_Story_a9423c9369ff-plugins.zip.tmp: 4200 files added (on-disk size: 28723.4 KB)
0012.972 (0) Zip: backup_2020-02-07-2224_Armando039_Story_a9423c9369ff-plugins.zip.tmp: 4300 files added (on-disk size: 28723.4 KB)
0012.980 (0) Zip: backup_2020-02-07-2224_Armando039_Story_a9423c9369ff-plugins.zip.tmp: 4400 files added (on-disk size: 28723.4 KB)
0012.991 (0) Zip: backup_2020-02-07-2224_Armando039_Story_a9423c9369ff-plugins.zip.tmp: 4500 files added (on-disk size: 28723.4 KB)
0012.996 (0) Adding batch to zip file (UpdraftPlus_ZipArchive): over 500 files added on this batch (8.2 MB, 8543 files batched, 501 (4509) added so far); re-opening (prior size: 28723.4 KB)
0014.361 (0) Zip: backup_2020-02-07-2224_Armando039_Story_a9423c9369ff-plugins.zip.tmp: 4600 files added (on-disk size: 31330.2 KB)
0014.372 (0) Zip: backup_2020-02-07-2224_Armando039_Story_a9423c9369ff-plugins.zip.tmp: 4700 files added (on-disk size: 31330.2 KB)
0014.383 (0) Zip: backup_2020-02-07-2224_Armando039_Story_a9423c9369ff-plugins.zip.tmp: 4800 files added (on-disk size: 31330.2 KB)
0014.392 (0) Zip: backup_2020-02-07-2224_Armando039_Story_a9423c9369ff-plugins.zip.tmp: 4900 files added (on-disk size: 31330.2 KB)
0014.402 (0) Zip: backup_2020-02-07-2224_Armando039_Story_a9423c9369ff-plugins.zip.tmp: 5000 files added (on-disk size: 31330.2 KB)
0014.407 (0) Adding batch to zip file (UpdraftPlus_ZipArchive): over 500 files added on this batch (15.7 MB, 8543 files batched, 501 (5010) added so far); re-opening (prior size: 31330.2 KB)
0016.765 (0) Zip: backup_2020-02-07-2224_Armando039_Story_a9423c9369ff-plugins.zip.tmp: 5100 files added (on-disk size: 35565.2 KB)
0016.775 (0) Zip: backup_2020-02-07-2224_Armando039_Story_a9423c9369ff-plugins.zip.tmp: 5200 files added (on-disk size: 35565.2 KB)
0016.783 (0) Zip: backup_2020-02-07-2224_Armando039_Story_a9423c9369ff-plugins.zip.tmp: 5300 files added (on-disk size: 35565.2 KB)
0016.792 (0) Zip: backup_2020-02-07-2224_Armando039_Story_a9423c9369ff-plugins.zip.tmp: 5400 files added (on-disk size: 35565.2 KB)
0016.801 (0) Zip: backup_2020-02-07-2224_Armando039_Story_a9423c9369ff-plugins.zip.tmp: 5500 files added (on-disk size: 35565.2 KB)
0016.806 (0) Adding batch to zip file (UpdraftPlus_ZipArchive): over 500 files added on this batch (2.8 MB, 8543 files batched, 501 (5511) added so far); re-opening (prior size: 35565.2 KB)
0017.656 (0) Zip: backup_2020-02-07-2224_Armando039_Story_a9423c9369ff-plugins.zip.tmp: 5600 files added (on-disk size: 36462.8 KB)
0017.666 (0) Zip: backup_2020-02-07-2224_Armando039_Story_a9423c9369ff-plugins.zip.tmp: 5700 files added (on-disk size: 36462.8 KB)
0017.676 (0) Zip: backup_2020-02-07-2224_Armando039_Story_a9423c9369ff-plugins.zip.tmp: 5800 files added (on-disk size: 36462.8 KB)
0017.686 (0) Zip: backup_2020-02-07-2224_Armando039_Story_a9423c9369ff-plugins.zip.tmp: 5900 files added (on-disk size: 36462.8 KB)
0017.698 (0) Zip: backup_2020-02-07-2224_Armando039_Story_a9423c9369ff-plugins.zip.tmp: 6000 files added (on-disk size: 36462.8 KB)
0017.705 (0) Adding batch to zip file (UpdraftPlus_ZipArchive): over 500 files added on this batch (12 MB, 8543 files batched, 501 (6012) added so far); re-opening (prior size: 36462.8 KB)
0019.369 (0) Zip: backup_2020-02-07-2224_Armando039_Story_a9423c9369ff-plugins.zip.tmp: 6100 files added (on-disk size: 41100 KB)
0019.380 (0) Zip: backup_2020-02-07-2224_Armando039_Story_a9423c9369ff-plugins.zip.tmp: 6200 files added (on-disk size: 41100 KB)
0019.391 (0) Zip: backup_2020-02-07-2224_Armando039_Story_a9423c9369ff-plugins.zip.tmp: 6300 files added (on-disk size: 41100 KB)
0019.400 (0) Zip: backup_2020-02-07-2224_Armando039_Story_a9423c9369ff-plugins.zip.tmp: 6400 files added (on-disk size: 41100 KB)
0019.410 (0) Zip: backup_2020-02-07-2224_Armando039_Story_a9423c9369ff-plugins.zip.tmp: 6500 files added (on-disk size: 41100 KB)
0019.416 (0) Adding batch to zip file (UpdraftPlus_ZipArchive): over 500 files added on this batch (7.2 MB, 8543 files batched, 501 (6513) added so far); re-opening (prior size: 41100 KB)
0020.925 (0) Zip: backup_2020-02-07-2224_Armando039_Story_a9423c9369ff-plugins.zip.tmp: 6600 files added (on-disk size: 43515.2 KB)
0020.933 (0) Zip: backup_2020-02-07-2224_Armando039_Story_a9423c9369ff-plugins.zip.tmp: 6700 files added (on-disk size: 43515.2 KB)
0020.944 (0) Zip: backup_2020-02-07-2224_Armando039_Story_a9423c9369ff-plugins.zip.tmp: 6800 files added (on-disk size: 43515.2 KB)
0020.955 (0) Zip: backup_2020-02-07-2224_Armando039_Story_a9423c9369ff-plugins.zip.tmp: 6900 files added (on-disk size: 43515.2 KB)
0020.963 (0) Zip: backup_2020-02-07-2224_Armando039_Story_a9423c9369ff-plugins.zip.tmp: 7000 files added (on-disk size: 43515.2 KB)
0020.968 (0) Adding batch to zip file (UpdraftPlus_ZipArchive): over 500 files added on this batch (14.2 MB, 8543 files batched, 501 (7014) added so far); re-opening (prior size: 43515.2 KB)
0022.989 (0) Zip: backup_2020-02-07-2224_Armando039_Story_a9423c9369ff-plugins.zip.tmp: 7100 files added (on-disk size: 48363.6 KB)
0022.998 (0) Zip: backup_2020-02-07-2224_Armando039_Story_a9423c9369ff-plugins.zip.tmp: 7200 files added (on-disk size: 48363.6 KB)
0023.006 (0) Zip: backup_2020-02-07-2224_Armando039_Story_a9423c9369ff-plugins.zip.tmp: 7300 files added (on-disk size: 48363.6 KB)
0023.015 (0) Zip: backup_2020-02-07-2224_Armando039_Story_a9423c9369ff-plugins.zip.tmp: 7400 files added (on-disk size: 48363.6 KB)
0023.025 (0) Zip: backup_2020-02-07-2224_Armando039_Story_a9423c9369ff-plugins.zip.tmp: 7500 files added (on-disk size: 48363.6 KB)
0023.030 (0) Adding batch to zip file (UpdraftPlus_ZipArchive): over 500 files added on this batch (3.4 MB, 8543 files batched, 501 (7515) added so far); re-opening (prior size: 48363.6 KB)
0023.921 (0) Zip: backup_2020-02-07-2224_Armando039_Story_a9423c9369ff-plugins.zip.tmp: 7600 files added (on-disk size: 49441.4 KB)
0023.928 (0) Zip: backup_2020-02-07-2224_Armando039_Story_a9423c9369ff-plugins.zip.tmp: 7700 files added (on-disk size: 49441.4 KB)
0023.936 (0) Zip: backup_2020-02-07-2224_Armando039_Story_a9423c9369ff-plugins.zip.tmp: 7800 files added (on-disk size: 49441.4 KB)
0023.945 (0) Zip: backup_2020-02-07-2224_Armando039_Story_a9423c9369ff-plugins.zip.tmp: 7900 files added (on-disk size: 49441.4 KB)
0023.953 (0) Zip: backup_2020-02-07-2224_Armando039_Story_a9423c9369ff-plugins.zip.tmp: 8000 files added (on-disk size: 49441.4 KB)
0023.959 (0) Adding batch to zip file (UpdraftPlus_ZipArchive): over 500 files added on this batch (7.8 MB, 8543 files batched, 501 (8016) added so far); re-opening (prior size: 49441.4 KB)
0025.719 (0) Zip: backup_2020-02-07-2224_Armando039_Story_a9423c9369ff-plugins.zip.tmp: 8100 files added (on-disk size: 51804.3 KB)
0025.727 (0) Zip: backup_2020-02-07-2224_Armando039_Story_a9423c9369ff-plugins.zip.tmp: 8200 files added (on-disk size: 51804.3 KB)
0025.734 (0) Zip: backup_2020-02-07-2224_Armando039_Story_a9423c9369ff-plugins.zip.tmp: 8300 files added (on-disk size: 51804.3 KB)
0025.742 (0) Zip: backup_2020-02-07-2224_Armando039_Story_a9423c9369ff-plugins.zip.tmp: 8400 files added (on-disk size: 51804.3 KB)
0025.749 (0) Zip: backup_2020-02-07-2224_Armando039_Story_a9423c9369ff-plugins.zip.tmp: 8500 files added (on-disk size: 51804.3 KB)
0025.754 (0) Adding batch to zip file (UpdraftPlus_ZipArchive): over 500 files added on this batch (5.8 MB, 8543 files batched, 501 (8517) added so far); re-opening (prior size: 51804.3 KB)
0028.182 (0) Created plugins zip (0) - 54661.5 KB in 28.1 s (1948.2 KB/s) (sha1: efc87f9fae3993a55aa4c551162160ddabb1878d, sha256: 268d5c9a58513f282e5cb85ec2738e01c8df1abcc48562fc1144668a0fe3fb63)
0028.193 (0) Beginning creation of dump of themes (split every: 400 MB)
0028.234 (0) Total entities for the zip file: 205 directories, 684 files (0 skipped as non-modified), 15.3 MB
0028.247 (0) Zip: backup_2020-02-07-2224_Armando039_Story_a9423c9369ff-themes.zip.tmp: 100 files added (on-disk size: 0 KB)
0028.256 (0) Zip: backup_2020-02-07-2224_Armando039_Story_a9423c9369ff-themes.zip.tmp: 200 files added (on-disk size: 0 KB)
0028.266 (0) Zip: backup_2020-02-07-2224_Armando039_Story_a9423c9369ff-themes.zip.tmp: 300 files added (on-disk size: 0 KB)
0028.275 (0) Zip: backup_2020-02-07-2224_Armando039_Story_a9423c9369ff-themes.zip.tmp: 400 files added (on-disk size: 0 KB)
0028.285 (0) Zip: backup_2020-02-07-2224_Armando039_Story_a9423c9369ff-themes.zip.tmp: 500 files added (on-disk size: 0 KB)
0028.289 (0) Adding batch to zip file (UpdraftPlus_ZipArchive): over 500 files added on this batch (12.1 MB, 684 files batched, 501 (501) added so far); re-opening (prior size: 0 KB)
0029.252 (0) Zip: backup_2020-02-07-2224_Armando039_Story_a9423c9369ff-themes.zip.tmp: 600 files added (on-disk size: 4386.4 KB)
0029.671 (0) Created themes zip (0) - 5728.3 KB in 1.5 s (3894.9 KB/s) (sha1: e8517c8d46a935e09aafc6fd8f92b0443dd0bb23, sha256: 433e0a5b7c24e8e870bd18d1e942b020cad8fda0722e6771d1257c70f4828955)
0029.681 (0) Exclusion option setting (uploads): backup*,*backups,backwpup*,wp-clone,snapshots
0029.684 (0) Looking for candidates to backup in: /var/www/ready2go.its2020.tk/public_html/wp-content/uploads
0029.686 (0) finding files: 2020: adding to list (1)
0029.689 (0) finding files: wpcf7_uploads: adding to list (2)
0029.694 (0) finding files: dynamic-mobmenu.css: adding to list (3)
0029.697 (0) finding files: elementor_icons_files: adding to list (4)
0029.700 (0) finding files: otwpct: adding to list (5)
0029.702 (0) finding files: ti_theme_onboarding.log: adding to list (6)
0029.706 (0) finding files: 2019: adding to list (7)
0029.709 (0) finding files: elementor: adding to list (8)
0029.713 (0) finding files: groovy: adding to list (9)
0029.717 (0) Beginning creation of dump of uploads (split every: 400 MB)
0029.735 (0) Total entities for the zip file: 18 directories, 140 files (0 skipped as non-modified), 8.5 MB
0029.743 (0) Zip: backup_2020-02-07-2224_Armando039_Story_a9423c9369ff-uploads.zip.tmp: 100 files added (on-disk size: 0 KB)
0030.198 (0) Created uploads zip (0) - 7710.5 KB in 0.5 s (16256.7 KB/s) (sha1: 3c248316c807851a88fb421c73001dbc14c8d118, sha256: b11c63d69ae1ddeba9cf3af7c494cf7a14f224e4456ba82ba106f9dae42fd243)
0030.209 (0) Beginning backup of other directories found in the content directory (index: 0)
0030.214 (0) Exclusion option setting (others): upgrade,cache,updraft,backup*,*backups,mysql.sql,debug.log
0030.218 (0) Looking for candidates to backup in: /var/www/ready2go.its2020.tk/public_html/wp-content
0030.222 (0) finding files: upgrade: skipping: excluded by options
0030.226 (0) finding files: themes: skipping: this is the themes directory
0030.230 (0) finding files: logs: adding to list (1)
0030.233 (0) finding files: plugins: skipping: this is the plugins directory
0030.236 (0) finding files: updraft: skipping: this is the updraft directory
0030.240 (0) finding files: languages: adding to list (2)
0030.242 (0) finding files: mu-plugins: adding to list (3)
0030.245 (0) finding files: index.php: adding to list (4)
0030.249 (0) finding files: w3tc-config: adding to list (5)
0030.252 (0) finding files: advanced-cache.php: adding to list (6)
0030.256 (0) finding files: debug.log: skipping: excluded by options
0030.257 (0) finding files: uploads: skipping: this is the uploads directory
0030.261 (0) finding files: cache: skipping: excluded by options
0030.273 (0) Total entities for the zip file: 7 directories, 50 files (0 skipped as non-modified), 3.6 MB
0030.784 (0) Created others zip (0) - 1048.4 KB in 0.5 s (2030.3 KB/s) (sha1: 24c6507f5cbaeb056b7db90767f68b335e965953, sha256: 062cf386140e78fc8a048389e92b930a669d5cb72d2a3e52b29a4b8dcb0994c3)
0030.805 (0) Saving backup status to database (elements: 8)
0030.820 (0) Beginning creation of database dump (WordPress DB)
0030.826 (0) Testing potential mysqldump binary: /usr/bin/mysqldump
0030.877 (0) Output: /*!40103 SET @OLD_TIME_ZONE=@@TIME_ZONE */;\n/*!40103 SET TIME_ZONE='+00:00' */;\n/*!40014 SET @OLD_UNIQUE_CHECKS=@@UNIQUE_CHECKS, UNIQUE_CHECKS=0 */;\n/*!40014 SET @OLD_FOREIGN_KEY_CHECKS=@@FOREIGN_KEY_CHECKS, FOREIGN_KEY_CHECKS=0 */;\n/*!40101 SET @OLD_SQL_MODE=@@SQL_MODE, SQL_MODE='NO_AUTO_VALUE_ON_ZERO' */;\n/*!40111 SET @OLD_SQL_NOTES=@@SQL_NOTES, SQL_NOTES=0 */;\nDROP TABLE IF EXISTS `wp_options`;\n/*!40101 SET @saved_cs_client     = @@character_set_client */;\n/*!40101 SET character_set_client = utf8 */;\nCRE (truncated - 1243 bytes total)
0030.884 (0) Working binary mysqldump found: /usr/bin/mysqldump
0030.902 (0) Table wp_options: Total expected rows (approximate): 551
0030.988 (0) Table wp_options: Total rows added: 561 in 0.08 seconds
0030.993 (0) Table wp_options: finishing file (backup_2020-02-07-2224_Armando039_Story_a9423c9369ff-db-table-wp_options.table.gz - 285.8 KB)
0031.006 (0) Table wp_users: Total expected rows (approximate): 9
0031.012 (0) Table wp_users: Total rows added: 9 in 0.00 seconds
0031.016 (0) Table wp_users: finishing file (backup_2020-02-07-2224_Armando039_Story_a9423c9369ff-db-table-wp_users.table.gz - 1.2 KB)
0031.027 (0) Table wp_usermeta: Total expected rows (approximate): 359
0031.038 (0) Table wp_usermeta: Total rows added: 359 in 0.01 seconds
0031.043 (0) Table wp_usermeta: finishing file (backup_2020-02-07-2224_Armando039_Story_a9423c9369ff-db-table-wp_usermeta.table.gz - 8.2 KB)
0031.055 (0) Table wp_commentmeta: Total expected rows (approximate): 0
0031.061 (0) Table wp_commentmeta: Total rows added: 0 in 0.00 seconds
0031.064 (0) Table wp_commentmeta: finishing file (backup_2020-02-07-2224_Armando039_Story_a9423c9369ff-db-table-wp_commentmeta.table.gz - 0.4 KB)
0031.078 (0) Table wp_comments: Total expected rows (approximate): 0
0031.084 (0) Table wp_comments: Total rows added: 1 in 0.00 seconds
0031.088 (0) Table wp_comments: finishing file (backup_2020-02-07-2224_Armando039_Story_a9423c9369ff-db-table-wp_comments.table.gz - 0.7 KB)
0031.101 (0) Table wp_links: Total expected rows (approximate): 0
0031.106 (0) Table wp_links: Total rows added: 0 in 0.00 seconds
0031.111 (0) Table wp_links: finishing file (backup_2020-02-07-2224_Armando039_Story_a9423c9369ff-db-table-wp_links.table.gz - 0.4 KB)
0031.126 (0) Table wp_ms_snippets: Total expected rows (approximate): 0
0031.132 (0) Table wp_ms_snippets: Total rows added: 0 in 0.00 seconds
0031.138 (0) Table wp_ms_snippets: finishing file (backup_2020-02-07-2224_Armando039_Story_a9423c9369ff-db-table-wp_ms_snippets.table.gz - 0.4 KB)
0031.151 (0) Table wp_postmeta: Total expected rows (approximate): 5865
0031.314 (0) Table wp_postmeta: Total rows added: 5207 in 0.16 seconds
0031.318 (0) Table wp_postmeta: finishing file (backup_2020-02-07-2224_Armando039_Story_a9423c9369ff-db-table-wp_postmeta.table.gz - 229.2 KB)
0031.331 (0) Table wp_posts: Total expected rows (approximate): 1043
0031.418 (0) Table wp_posts: Total rows added: 1067 in 0.08 seconds
0031.423 (0) Table wp_posts: finishing file (backup_2020-02-07-2224_Armando039_Story_a9423c9369ff-db-table-wp_posts.table.gz - 120 KB)
0031.436 (0) Table wp_snippets: Total expected rows (approximate): 5
0031.444 (0) Table wp_snippets: Total rows added: 6 in 0.00 seconds
0031.448 (0) Table wp_snippets: finishing file (backup_2020-02-07-2224_Armando039_Story_a9423c9369ff-db-table-wp_snippets.table.gz - 2.8 KB)
0031.461 (0) Table wp_term_relationships: Total expected rows (approximate): 74
0031.467 (0) Table wp_term_relationships: Total rows added: 74 in 0.00 seconds
0031.471 (0) Table wp_term_relationships: finishing file (backup_2020-02-07-2224_Armando039_Story_a9423c9369ff-db-table-wp_term_relationships.table.gz - 0.6 KB)
0031.483 (0) Table wp_term_taxonomy: Total expected rows (approximate): 53
0031.490 (0) Table wp_term_taxonomy: Total rows added: 53 in 0.00 seconds
0031.494 (0) Table wp_term_taxonomy: finishing file (backup_2020-02-07-2224_Armando039_Story_a9423c9369ff-db-table-wp_term_taxonomy.table.gz - 0.8 KB)
0031.506 (0) Table wp_termmeta: Total expected rows (approximate): 0
0031.512 (0) Table wp_termmeta: Total rows added: 0 in 0.00 seconds
0031.516 (0) Table wp_termmeta: finishing file (backup_2020-02-07-2224_Armando039_Story_a9423c9369ff-db-table-wp_termmeta.table.gz - 0.4 KB)
0031.529 (0) Table wp_terms: Total expected rows (approximate): 53
0031.537 (0) Table wp_terms: Total rows added: 53 in 0.00 seconds
0031.543 (0) Table wp_terms: finishing file (backup_2020-02-07-2224_Armando039_Story_a9423c9369ff-db-table-wp_terms.table.gz - 1.2 KB)
0031.555 (0) Table wp_yoast_seo_links: Total expected rows (approximate): 336
0031.563 (0) Table wp_yoast_seo_links: Total rows added: 336 in 0.00 seconds
0031.567 (0) Table wp_yoast_seo_links: finishing file (backup_2020-02-07-2224_Armando039_Story_a9423c9369ff-db-table-wp_yoast_seo_links.table.gz - 3.1 KB)
0031.580 (0) Table wp_yoast_seo_meta: Total expected rows (approximate): 389
0031.588 (0) Table wp_yoast_seo_meta: Total rows added: 389 in 0.00 seconds
0031.592 (0) Table wp_yoast_seo_meta: finishing file (backup_2020-02-07-2224_Armando039_Story_a9423c9369ff-db-table-wp_yoast_seo_meta.table.gz - 1.4 KB)
0031.605 (0) Table wp_aepc_custom_audiences: Total expected rows (approximate): 0
0031.611 (0) Table wp_aepc_custom_audiences: Total rows added: 0 in 0.00 seconds
0031.614 (0) Table wp_aepc_custom_audiences: finishing file (backup_2020-02-07-2224_Armando039_Story_a9423c9369ff-db-table-wp_aepc_custom_audiences.table.gz - 0.4 KB)
0031.626 (0) Table wp_aepc_logs: Total expected rows (approximate): 33
0031.645 (0) Table wp_aepc_logs: Total rows added: 38 in 0.02 seconds
0031.650 (0) Table wp_aepc_logs: finishing file (backup_2020-02-07-2224_Armando039_Story_a9423c9369ff-db-table-wp_aepc_logs.table.gz - 14.2 KB)
0031.663 (0) Table wp_gmw_forms: Total expected rows (approximate): 0
0031.669 (0) Table wp_gmw_forms: Total rows added: 1 in 0.00 seconds
0031.673 (0) Table wp_gmw_forms: finishing file (backup_2020-02-07-2224_Armando039_Story_a9423c9369ff-db-table-wp_gmw_forms.table.gz - 1.1 KB)
0031.686 (0) Table wp_gmw_locationmeta: Total expected rows (approximate): 0
0031.692 (0) Table wp_gmw_locationmeta: Total rows added: 0 in 0.00 seconds
0031.696 (0) Table wp_gmw_locationmeta: finishing file (backup_2020-02-07-2224_Armando039_Story_a9423c9369ff-db-table-wp_gmw_locationmeta.table.gz - 0.4 KB)
0031.708 (0) Table wp_gmw_locations: Total expected rows (approximate): 2
0031.715 (0) Table wp_gmw_locations: Total rows added: 2 in 0.00 seconds
0031.719 (0) Table wp_gmw_locations: finishing file (backup_2020-02-07-2224_Armando039_Story_a9423c9369ff-db-table-wp_gmw_locations.table.gz - 1 KB)
0031.745 (0) Table wp_newsletter: Total expected rows (approximate): 0
0031.754 (0) Table wp_newsletter: Total rows added: 1 in 0.01 seconds
0031.759 (0) Table wp_newsletter: finishing file (backup_2020-02-07-2224_Armando039_Story_a9423c9369ff-db-table-wp_newsletter.table.gz - 0.9 KB)
0031.772 (0) Table wp_newsletter_emails: Total expected rows (approximate): 0
0031.778 (0) Table wp_newsletter_emails: Total rows added: 0 in 0.00 seconds
0031.783 (0) Table wp_newsletter_emails: finishing file (backup_2020-02-07-2224_Armando039_Story_a9423c9369ff-db-table-wp_newsletter_emails.table.gz - 0.6 KB)
0031.796 (0) Table wp_newsletter_sent: Total expected rows (approximate): 0
0031.801 (0) Table wp_newsletter_sent: Total rows added: 0 in 0.00 seconds
0031.806 (0) Table wp_newsletter_sent: finishing file (backup_2020-02-07-2224_Armando039_Story_a9423c9369ff-db-table-wp_newsletter_sent.table.gz - 0.4 KB)
0031.820 (0) Table wp_newsletter_stats: Total expected rows (approximate): 0
0031.826 (0) Table wp_newsletter_stats: Total rows added: 0 in 0.00 seconds
0031.831 (0) Table wp_newsletter_stats: finishing file (backup_2020-02-07-2224_Armando039_Story_a9423c9369ff-db-table-wp_newsletter_stats.table.gz - 0.4 KB)
0031.849 (0) Table wp_newsletter_user_logs: Total expected rows (approximate): 0
0031.855 (0) Table wp_newsletter_user_logs: Total rows added: 0 in 0.00 seconds
0031.860 (0) Table wp_newsletter_user_logs: finishing file (backup_2020-02-07-2224_Armando039_Story_a9423c9369ff-db-table-wp_newsletter_user_logs.table.gz - 0.3 KB)
0031.876 (0) Table wp_page_visit_history: Total expected rows (approximate): 9
0031.883 (0) Table wp_page_visit_history: Total rows added: 11 in 0.00 seconds
0031.888 (0) Table wp_page_visit_history: finishing file (backup_2020-02-07-2224_Armando039_Story_a9423c9369ff-db-table-wp_page_visit_history.table.gz - 0.7 KB)
0031.905 (0) Table wp_page_visit_referer: Total expected rows (approximate): 0
0031.911 (0) Table wp_page_visit_referer: Total rows added: 0 in 0.00 seconds
0031.915 (0) Table wp_page_visit_referer: finishing file (backup_2020-02-07-2224_Armando039_Story_a9423c9369ff-db-table-wp_page_visit_referer.table.gz - 0.3 KB)
0031.928 (0) Table wp_page_visit_wizard: Total expected rows (approximate): 0
0031.934 (0) Table wp_page_visit_wizard: Total rows added: 1 in 0.00 seconds
0031.939 (0) Table wp_page_visit_wizard: finishing file (backup_2020-02-07-2224_Armando039_Story_a9423c9369ff-db-table-wp_page_visit_wizard.table.gz - 0.4 KB)
0031.953 (0) Table wp_wp_floating_menu_custom_templates: Total expected rows (approximate): 0
0031.958 (0) Table wp_wp_floating_menu_custom_templates: Total rows added: 0 in 0.00 seconds
0031.963 (0) Table wp_wp_floating_menu_custom_templates: finishing file (backup_2020-02-07-2224_Armando039_Story_a9423c9369ff-db-table-wp_wp_floating_menu_custom_templates.table.gz - 0.3 KB)
0031.981 (0) Table wp_wp_floating_menu_details: Total expected rows (approximate): 0
0031.986 (0) Table wp_wp_floating_menu_details: Total rows added: 1 in 0.00 seconds
0031.990 (0) Table wp_wp_floating_menu_details: finishing file (backup_2020-02-07-2224_Armando039_Story_a9423c9369ff-db-table-wp_wp_floating_menu_details.table.gz - 0.4 KB)
0032.002 (0) Table wp_wpda_vertical_menu_theme: Total expected rows (approximate): 0
0032.007 (0) Table wp_wpda_vertical_menu_theme: Total rows added: 1 in 0.00 seconds
0032.011 (0) Table wp_wpda_vertical_menu_theme: finishing file (backup_2020-02-07-2224_Armando039_Story_a9423c9369ff-db-table-wp_wpda_vertical_menu_theme.table.gz - 0.8 KB)
0032.023 (0) backup_2020-02-07-2224_Armando039_Story_a9423c9369ff-db-table-wp_options.table.gz (1/32): adding to final database dump
0032.109 (0) backup_2020-02-07-2224_Armando039_Story_a9423c9369ff-db-table-wp_users.table.gz (2/32): adding to final database dump
0032.114 (0) backup_2020-02-07-2224_Armando039_Story_a9423c9369ff-db-table-wp_usermeta.table.gz (3/32): adding to final database dump
0032.120 (0) backup_2020-02-07-2224_Armando039_Story_a9423c9369ff-db-table-wp_commentmeta.table.gz (4/32): adding to final database dump
0032.125 (0) backup_2020-02-07-2224_Armando039_Story_a9423c9369ff-db-table-wp_comments.table.gz (5/32): adding to final database dump
0032.134 (0) backup_2020-02-07-2224_Armando039_Story_a9423c9369ff-db-table-wp_links.table.gz (6/32): adding to final database dump
0032.138 (0) backup_2020-02-07-2224_Armando039_Story_a9423c9369ff-db-table-wp_ms_snippets.table.gz (7/32): adding to final database dump
0032.142 (0) backup_2020-02-07-2224_Armando039_Story_a9423c9369ff-db-table-wp_postmeta.table.gz (8/32): adding to final database dump
0032.248 (0) backup_2020-02-07-2224_Armando039_Story_a9423c9369ff-db-table-wp_posts.table.gz (9/32): adding to final database dump
0032.298 (0) backup_2020-02-07-2224_Armando039_Story_a9423c9369ff-db-table-wp_snippets.table.gz (10/32): adding to final database dump
0032.303 (0) backup_2020-02-07-2224_Armando039_Story_a9423c9369ff-db-table-wp_term_relationships.table.gz (11/32): adding to final database dump
0032.306 (0) backup_2020-02-07-2224_Armando039_Story_a9423c9369ff-db-table-wp_term_taxonomy.table.gz (12/32): adding to final database dump
0032.310 (0) backup_2020-02-07-2224_Armando039_Story_a9423c9369ff-db-table-wp_termmeta.table.gz (13/32): adding to final database dump
0032.314 (0) backup_2020-02-07-2224_Armando039_Story_a9423c9369ff-db-table-wp_terms.table.gz (14/32): adding to final database dump
0032.318 (0) backup_2020-02-07-2224_Armando039_Story_a9423c9369ff-db-table-wp_yoast_seo_links.table.gz (15/32): adding to final database dump
0032.323 (0) backup_2020-02-07-2224_Armando039_Story_a9423c9369ff-db-table-wp_yoast_seo_meta.table.gz (16/32): adding to final database dump
0032.328 (0) backup_2020-02-07-2224_Armando039_Story_a9423c9369ff-db-table-wp_aepc_custom_audiences.table.gz (17/32): adding to final database dump
0032.331 (0) backup_2020-02-07-2224_Armando039_Story_a9423c9369ff-db-table-wp_aepc_logs.table.gz (18/32): adding to final database dump
0032.344 (0) backup_2020-02-07-2224_Armando039_Story_a9423c9369ff-db-table-wp_gmw_forms.table.gz (19/32): adding to final database dump
0032.348 (0) backup_2020-02-07-2224_Armando039_Story_a9423c9369ff-db-table-wp_gmw_locationmeta.table.gz (20/32): adding to final database dump
0032.351 (0) backup_2020-02-07-2224_Armando039_Story_a9423c9369ff-db-table-wp_gmw_locations.table.gz (21/32): adding to final database dump
0032.354 (0) backup_2020-02-07-2224_Armando039_Story_a9423c9369ff-db-table-wp_newsletter.table.gz (22/32): adding to final database dump
0032.359 (0) backup_2020-02-07-2224_Armando039_Story_a9423c9369ff-db-table-wp_newsletter_emails.table.gz (23/32): adding to final database dump
0032.362 (0) backup_2020-02-07-2224_Armando039_Story_a9423c9369ff-db-table-wp_newsletter_sent.table.gz (24/32): adding to final database dump
0032.366 (0) backup_2020-02-07-2224_Armando039_Story_a9423c9369ff-db-table-wp_newsletter_stats.table.gz (25/32): adding to final database dump
0032.371 (0) backup_2020-02-07-2224_Armando039_Story_a9423c9369ff-db-table-wp_newsletter_user_logs.table.gz (26/32): adding to final database dump
0032.376 (0) backup_2020-02-07-2224_Armando039_Story_a9423c9369ff-db-table-wp_page_visit_history.table.gz (27/32): adding to final database dump
0032.380 (0) backup_2020-02-07-2224_Armando039_Story_a9423c9369ff-db-table-wp_page_visit_referer.table.gz (28/32): adding to final database dump
0032.384 (0) backup_2020-02-07-2224_Armando039_Story_a9423c9369ff-db-table-wp_page_visit_wizard.table.gz (29/32): adding to final database dump
0032.388 (0) backup_2020-02-07-2224_Armando039_Story_a9423c9369ff-db-table-wp_wp_floating_menu_custom_templates.table.gz (30/32): adding to final database dump
0032.390 (0) backup_2020-02-07-2224_Armando039_Story_a9423c9369ff-db-table-wp_wp_floating_menu_details.table.gz (31/32): adding to final database dump
0032.394 (0) backup_2020-02-07-2224_Armando039_Story_a9423c9369ff-db-table-wp_wpda_vertical_menu_theme.table.gz (32/32): adding to final database dump
0032.400 (0) backup_2020-02-07-2224_Armando039_Story_a9423c9369ff-db.gz: finished writing out complete database file (648 KB)
0032.433 (0) Total database tables backed up: 32 (backup_2020-02-07-2224_Armando039_Story_a9423c9369ff-db.gz, size: 688077, sha1: 04ff173c184870084bb871eaa80064d24436b7c2, sha256: 104872f58a133c8504a97aac3c82715963d00f0c70773bafdfc13dcf2d4339b7)
0032.464 (0) backup_2020-02-07-2224_Armando039_Story_a9423c9369ff-plugins.zip: plugins: This file has not yet been successfully uploaded: will queue
0032.469 (0) backup_2020-02-07-2224_Armando039_Story_a9423c9369ff-themes.zip: themes: This file has not yet been successfully uploaded: will queue
0032.473 (0) backup_2020-02-07-2224_Armando039_Story_a9423c9369ff-uploads.zip: uploads: This file has not yet been successfully uploaded: will queue
0032.478 (0) backup_2020-02-07-2224_Armando039_Story_a9423c9369ff-others.zip: others: This file has not yet been successfully uploaded: will queue
0032.482 (0) backup_2020-02-07-2224_Armando039_Story_a9423c9369ff-db.gz: db: This file has not yet been successfully uploaded: will queue
0032.486 (0) Saving backup history. Total backup size: 68.2 MB
0032.500 (0) Requesting upload of the files that have not yet been successfully uploaded (5)
0032.509 (0) Cloud backup selection (1/1): none with instance (1/1) (last)
0032.512 (0) No remote despatch: user chose no remote backup service
0032.514 (0) Recording as successfully uploaded: backup_2020-02-07-2224_Armando039_Story_a9423c9369ff-plugins.zip
0032.521 (0) Recording as successfully uploaded: backup_2020-02-07-2224_Armando039_Story_a9423c9369ff-themes.zip
0032.528 (0) Recording as successfully uploaded: backup_2020-02-07-2224_Armando039_Story_a9423c9369ff-uploads.zip
0032.533 (0) Recording as successfully uploaded: backup_2020-02-07-2224_Armando039_Story_a9423c9369ff-others.zip
0032.540 (0) Recording as successfully uploaded: backup_2020-02-07-2224_Armando039_Story_a9423c9369ff-db.gz
0032.547 (0) Retain: beginning examination of existing backup sets; user setting: retain_files=25, retain_db=25
0032.551 (0) Number of backup sets in history: 27; groups (db): 1
0032.554 (0) Examining (for databases) backup set with group_id=0, nonce=a9423c9369ff, datestamp=1581110652 (Feb 07 2020 21:24:12)
0032.557 (0) This backup set is the backup set just made, so will not be deleted.
0032.557 (0) Examining (for databases) backup set with group_id=0, nonce=c69e72b920bd, datestamp=1581024071 (Feb 06 2020 21:21:11)
0032.557 (0) This backup set remains non-empty (f=1/d=1); will retain in history
0032.562 (0) Examining (for databases) backup set with group_id=0, nonce=1e4fa0c1a41d, datestamp=1580937908 (Feb 05 2020 21:25:08)
0032.562 (0) This backup set remains non-empty (f=1/d=1); will retain in history
0032.563 (0) Examining (for databases) backup set with group_id=0, nonce=9d03ddc68c87, datestamp=1580851248 (Feb 04 2020 21:20:48)
0032.563 (0) This backup set remains non-empty (f=1/d=1); will retain in history
0032.563 (0) Examining (for databases) backup set with group_id=0, nonce=a8761ca18132, datestamp=1580768519 (Feb 03 2020 22:21:59)
0032.563 (0) This backup set remains non-empty (f=1/d=1); will retain in history
0032.563 (0) Examining (for databases) backup set with group_id=0, nonce=03115392b1f4, datestamp=1580678449 (Feb 02 2020 21:20:49)
0032.563 (0) This backup set remains non-empty (f=1/d=1); will retain in history
0032.563 (0) Examining (for databases) backup set with group_id=0, nonce=63fdf4264504, datestamp=1580595789 (Feb 01 2020 22:23:09)
0032.563 (0) This backup set remains non-empty (f=1/d=1); will retain in history
0032.563 (0) Examining (for databases) backup set with group_id=0, nonce=84432b744b6c, datestamp=1580511376 (Jan 31 2020 22:56:16)
0032.563 (0) This backup set remains non-empty (f=1/d=1); will retain in history
0032.564 (0) Examining (for databases) backup set with group_id=0, nonce=30483866ad31, datestamp=1580419265 (Jan 30 2020 21:21:05)
0032.564 (0) This backup set remains non-empty (f=1/d=1); will retain in history
0032.564 (0) Examining (for databases) backup set with group_id=0, nonce=5a4db1f0d881, datestamp=1580373145 (Jan 30 2020 08:32:25)
0032.564 (0) This backup set remains non-empty (f=1/d=1); will retain in history
0032.564 (0) Examining (for databases) backup set with group_id=0, nonce=bd293733220d, datestamp=1580246444 (Jan 28 2020 21:20:44)
0032.564 (0) This backup set remains non-empty (f=1/d=1); will retain in history
0032.564 (0) Examining (for databases) backup set with group_id=0, nonce=2285c59df0fe, datestamp=1580160884 (Jan 27 2020 21:34:44)
0032.564 (0) This backup set remains non-empty (f=1/d=1); will retain in history
0032.564 (0) Examining (for databases) backup set with group_id=0, nonce=cc64b36b4e63, datestamp=1580074069 (Jan 26 2020 21:27:49)
0032.565 (0) This backup set remains non-empty (f=1/d=1); will retain in history
0032.565 (0) Examining (for databases) backup set with group_id=0, nonce=2e87311608c0, datestamp=1579990210 (Jan 25 2020 22:10:10)
0032.565 (0) This backup set remains non-empty (f=1/d=1); will retain in history
0032.565 (0) Examining (for databases) backup set with group_id=0, nonce=424d699f8fa9, datestamp=1579900877 (Jan 24 2020 21:21:17)
0032.565 (0) This backup set remains non-empty (f=1/d=1); will retain in history
0032.565 (0) Examining (for databases) backup set with group_id=0, nonce=4c5032ca65c4, datestamp=1579852996 (Jan 24 2020 08:03:16)
0032.565 (0) This backup set remains non-empty (f=1/d=1); will retain in history
0032.565 (0) Examining (for databases) backup set with group_id=0, nonce=956ad430c35a, datestamp=1579731828 (Jan 22 2020 22:23:48)
0032.565 (0) This backup set remains non-empty (f=1/d=1); will retain in history
0032.565 (0) Examining (for databases) backup set with group_id=0, nonce=5817556e66e2, datestamp=1579679377 (Jan 22 2020 07:49:37)
0032.565 (0) This backup set remains non-empty (f=1/d=1); will retain in history
0032.566 (0) Examining (for databases) backup set with group_id=0, nonce=411f1ac27bdc, datestamp=1579555346 (Jan 20 2020 21:22:26)
0032.566 (0) This backup set remains non-empty (f=1/d=1); will retain in history
0032.566 (0) Examining (for databases) backup set with group_id=0, nonce=af380ea29ce4, datestamp=1579468873 (Jan 19 2020 21:21:13)
0032.566 (0) This backup set remains non-empty (f=1/d=1); will retain in history
0032.566 (0) Examining (for databases) backup set with group_id=0, nonce=683b190684ee, datestamp=1579384450 (Jan 18 2020 21:54:10)
0032.566 (0) This backup set remains non-empty (f=1/d=1); will retain in history
0032.566 (0) Examining (for databases) backup set with group_id=0, nonce=36845dc9c66a, datestamp=1579296051 (Jan 17 2020 21:20:51)
0032.566 (0) This backup set remains non-empty (f=1/d=1); will retain in history
0032.566 (0) Examining (for databases) backup set with group_id=0, nonce=7ae7b5480eb4, datestamp=1579210508 (Jan 16 2020 21:35:08)
0032.566 (0) This backup set remains non-empty (f=1/d=1); will retain in history
0032.567 (0) Examining (for databases) backup set with group_id=0, nonce=7537bd286c58, datestamp=1579123243 (Jan 15 2020 21:20:43)
0032.567 (0) This backup set remains non-empty (f=1/d=1); will retain in history
0032.567 (0) Examining (for databases) backup set with group_id=0, nonce=cf1fb8f03f99, datestamp=1579039230 (Jan 14 2020 22:00:30)
0032.567 (0) This backup set remains non-empty (f=1/d=1); will retain in history
0032.567 (0) Examining (for databases) backup set with group_id=0, nonce=045b75b4a263, datestamp=1579011468 (Jan 14 2020 14:17:48)
0032.567 (0) 1579011468: db: this set includes a database (backup_2020-01-14-1517_Armando039_Story_045b75b4a263-db.gz); db count is now 25
0032.567 (0) 1579011468: db: over retain limit (25); will delete this database
0032.567 (0) Delete file: backup_2020-01-14-1517_Armando039_Story_045b75b4a263-db.gz, service=none
0032.572 (0) Deleting local copy (backup_2020-01-14-1517_Armando039_Story_045b75b4a263-db.gz)
0032.580 (0) This backup set remains non-empty (f=1/d=0); will retain in history
0032.583 (0) Examining (for databases) backup set with group_id=0, nonce=4fb51b1ad7cf, datestamp=1578736864 (Jan 11 2020 10:01:04)
0032.583 (0) This backup set (1578736864) was an 'Always Keep' backup, so it will not be pruned. Skipping.
0032.583 (0) Number of backup sets in history: 27; groups (files): 1
0032.586 (0) Examining (for files) backup set with nonce=a9423c9369ff, datestamp=1581110652 (Feb 07 2020 21:24:12)
0032.586 (0) This backup set is the backup set just made, so will not be deleted.
0032.589 (0) This backup set is the backup set just made, so will not be deleted.
0032.589 (0) This backup set is the backup set just made, so will not be deleted.
0032.590 (0) This backup set is the backup set just made, so will not be deleted.
0032.590 (0) This backup set remains non-empty (f=1/d=1); will retain in history
0032.593 (0) Examining (for files) backup set with nonce=c69e72b920bd, datestamp=1581024071 (Feb 06 2020 21:21:11)
0032.593 (0) This backup set remains non-empty (f=1/d=1); will retain in history
0032.593 (0) Examining (for files) backup set with nonce=1e4fa0c1a41d, datestamp=1580937908 (Feb 05 2020 21:25:08)
0032.593 (0) This backup set remains non-empty (f=1/d=1); will retain in history
0032.594 (0) Examining (for files) backup set with nonce=9d03ddc68c87, datestamp=1580851248 (Feb 04 2020 21:20:48)
0032.594 (0) This backup set remains non-empty (f=1/d=1); will retain in history
0032.594 (0) Examining (for files) backup set with nonce=a8761ca18132, datestamp=1580768519 (Feb 03 2020 22:21:59)
0032.594 (0) This backup set remains non-empty (f=1/d=1); will retain in history
0032.594 (0) Examining (for files) backup set with nonce=03115392b1f4, datestamp=1580678449 (Feb 02 2020 21:20:49)
0032.594 (0) This backup set remains non-empty (f=1/d=1); will retain in history
0032.594 (0) Examining (for files) backup set with nonce=63fdf4264504, datestamp=1580595789 (Feb 01 2020 22:23:09)
0032.594 (0) This backup set remains non-empty (f=1/d=1); will retain in history
0032.594 (0) Examining (for files) backup set with nonce=84432b744b6c, datestamp=1580511376 (Jan 31 2020 22:56:16)
0032.594 (0) This backup set remains non-empty (f=1/d=1); will retain in history
0032.594 (0) Examining (for files) backup set with nonce=30483866ad31, datestamp=1580419265 (Jan 30 2020 21:21:05)
0032.594 (0) This backup set remains non-empty (f=1/d=1); will retain in history
0032.595 (0) Examining (for files) backup set with nonce=5a4db1f0d881, datestamp=1580373145 (Jan 30 2020 08:32:25)
0032.595 (0) This backup set remains non-empty (f=1/d=1); will retain in history
0032.595 (0) Examining (for files) backup set with nonce=bd293733220d, datestamp=1580246444 (Jan 28 2020 21:20:44)
0032.595 (0) This backup set remains non-empty (f=1/d=1); will retain in history
0032.595 (0) Examining (for files) backup set with nonce=2285c59df0fe, datestamp=1580160884 (Jan 27 2020 21:34:44)
0032.595 (0) This backup set remains non-empty (f=1/d=1); will retain in history
0032.595 (0) Examining (for files) backup set with nonce=cc64b36b4e63, datestamp=1580074069 (Jan 26 2020 21:27:49)
0032.596 (0) This backup set remains non-empty (f=1/d=1); will retain in history
0032.596 (0) Examining (for files) backup set with nonce=2e87311608c0, datestamp=1579990210 (Jan 25 2020 22:10:10)
0032.596 (0) This backup set remains non-empty (f=1/d=1); will retain in history
0032.596 (0) Examining (for files) backup set with nonce=424d699f8fa9, datestamp=1579900877 (Jan 24 2020 21:21:17)
0032.596 (0) This backup set remains non-empty (f=1/d=1); will retain in history
0032.596 (0) Examining (for files) backup set with nonce=4c5032ca65c4, datestamp=1579852996 (Jan 24 2020 08:03:16)
0032.596 (0) This backup set remains non-empty (f=1/d=1); will retain in history
0032.596 (0) Examining (for files) backup set with nonce=956ad430c35a, datestamp=1579731828 (Jan 22 2020 22:23:48)
0032.596 (0) This backup set remains non-empty (f=1/d=1); will retain in history
0032.596 (0) Examining (for files) backup set with nonce=5817556e66e2, datestamp=1579679377 (Jan 22 2020 07:49:37)
0032.596 (0) This backup set remains non-empty (f=1/d=1); will retain in history
0032.596 (0) Examining (for files) backup set with nonce=411f1ac27bdc, datestamp=1579555346 (Jan 20 2020 21:22:26)
0032.597 (0) This backup set remains non-empty (f=1/d=1); will retain in history
0032.597 (0) Examining (for files) backup set with nonce=af380ea29ce4, datestamp=1579468873 (Jan 19 2020 21:21:13)
0032.597 (0) This backup set remains non-empty (f=1/d=1); will retain in history
0032.597 (0) Examining (for files) backup set with nonce=683b190684ee, datestamp=1579384450 (Jan 18 2020 21:54:10)
0032.597 (0) This backup set remains non-empty (f=1/d=1); will retain in history
0032.597 (0) Examining (for files) backup set with nonce=36845dc9c66a, datestamp=1579296051 (Jan 17 2020 21:20:51)
0032.597 (0) This backup set remains non-empty (f=1/d=1); will retain in history
0032.597 (0) Examining (for files) backup set with nonce=7ae7b5480eb4, datestamp=1579210508 (Jan 16 2020 21:35:08)
0032.597 (0) This backup set remains non-empty (f=1/d=1); will retain in history
0032.597 (0) Examining (for files) backup set with nonce=7537bd286c58, datestamp=1579123243 (Jan 15 2020 21:20:43)
0032.597 (0) This backup set remains non-empty (f=1/d=1); will retain in history
0032.597 (0) Examining (for files) backup set with nonce=cf1fb8f03f99, datestamp=1579039230 (Jan 14 2020 22:00:30)
0032.598 (0) This backup set remains non-empty (f=1/d=1); will retain in history
0032.598 (0) Examining (for files) backup set with nonce=045b75b4a263, datestamp=1579011468 (Jan 14 2020 14:17:48)
0032.598 (0) plugins: over retain limit (25); will delete this file entity
0032.598 (0) themes: over retain limit (25); will delete this file entity
0032.598 (0) uploads: over retain limit (25); will delete this file entity
0032.598 (0) others: over retain limit (25); will delete this file entity
0032.598 (0) Delete file: backup_2020-01-14-1517_Armando039_Story_045b75b4a263-plugins.zip, service=none
0032.601 (0) Deleting local copy (backup_2020-01-14-1517_Armando039_Story_045b75b4a263-plugins.zip)
0032.606 (0) Delete file: backup_2020-01-14-1517_Armando039_Story_045b75b4a263-themes.zip, service=none
0032.609 (0) Deleting local copy (backup_2020-01-14-1517_Armando039_Story_045b75b4a263-themes.zip)
0032.612 (0) Delete file: backup_2020-01-14-1517_Armando039_Story_045b75b4a263-uploads.zip, service=none
0032.613 (0) Deleting local copy (backup_2020-01-14-1517_Armando039_Story_045b75b4a263-uploads.zip)
0032.616 (0) Delete file: backup_2020-01-14-1517_Armando039_Story_045b75b4a263-others.zip, service=none
0032.620 (0) Deleting local copy (backup_2020-01-14-1517_Armando039_Story_045b75b4a263-others.zip)
0032.629 (0) This backup set is now empty; will remove from history
0032.633 (0) Deleting log file (log.045b75b4a263.txt)
0032.639 (0) Examining (for files) backup set with nonce=4fb51b1ad7cf, datestamp=1578736864 (Jan 11 2020 10:01:04)
0032.639 (0) This backup set (1578736864) was an 'Always Keep' backup, so it will not be pruned. Skipping.
0032.639 (0) This backup set (1578736864) was an 'Always Keep' backup, so it will not be pruned. Skipping.
0032.639 (0) This backup set (1578736864) was an 'Always Keep' backup, so it will not be pruned. Skipping.
0032.639 (0) This backup set (1578736864) was an 'Always Keep' backup, so it will not be pruned. Skipping.
0032.639 (0) This backup set remains non-empty (f=1/d=1); will retain in history
0032.642 (0) Retain: saving new backup history (sets now: 26) and finishing retain operation
0032.656 (0) Resume backup (a9423c9369ff, 0): finish run
0032.664 (0) Decremented the semaphore (fd) by 1
0032.668 (0) Semaphore (fd) unlocked
0032.672 (0) There were no errors in the uploads, so the 'resume' event (1) is being unscheduled
0032.682 (0) The backup apparently succeeded and is now complete
0032.686 (0) No email will/can be sent - the user has not configured an email address.
0032.690 (0) Il backup apparentemente è riuscito ed ora è completo
