{
  "name": "",
  "css_prefix_text": "icon-",
  "css_use_suffix": false,
  "hinting": true,
  "units_per_em": 1000,
  "ascent": 850,
  "glyphs": [
    {
      "uid": "c61a460d32f871de8e522973df10e91b",
      "css": "donation",
      "code": 59392,
      "src": "custom_icons",
      "selected": true,
      "svg": {
        "path": "M950 250H947.1C952.5 234.7 950.2 217.7 940.8 204.5 931.5 191.2 916.2 183.3 900 183.3H880.5C885.9 168 883.5 151.1 874.2 137.8S849.6 116.7 833.3 116.7H650C609.9 116.7 570.6 127.6 536.3 148.2 515.1 160.6 490.9 166.9 466.4 166.7H416.7V133.3C416.7 117.1 408.8 101.9 395.5 92.5S365.3 80.8 350 86.2V50C350 22.4 327.6 0 300 0 272.4 0 250 22.4 250 50V52.9C234.7 47.5 217.7 49.8 204.5 59.2S183.3 83.8 183.3 100V119.5C168 114.1 151.1 116.5 137.8 125.8 124.5 135.2 116.7 150.4 116.7 166.7V350C116.7 390.1 127.6 429.4 148.2 463.7 160.6 484.9 166.9 509.1 166.7 533.6V583.3H133.3C117.1 583.3 101.9 591.2 92.5 604.5 83.1 617.7 80.8 634.7 86.2 650H50C22.4 650 0 672.4 0 700S22.4 750 50 750H52.9C47.5 765.3 49.8 782.3 59.2 795.5S83.8 816.7 100 816.7H119.5C114.1 832 116.5 848.9 125.8 862.2 135.2 875.5 150.4 883.3 166.7 883.3H350C390.1 883.3 429.4 872.4 463.7 851.8 484.9 839.4 509.1 833.1 533.6 833.3H583.3V866.7C583.3 882.9 591.2 898.1 604.5 907.5 617.7 916.9 634.7 919.2 650 913.8V950C650 977.6 672.4 1000 700 1000S750 977.6 750 950V947.1C765.3 952.5 782.3 950.2 795.5 940.8 808.8 931.5 816.7 916.2 816.7 900V880.5C832 885.9 848.9 883.5 862.2 874.2 875.5 864.8 883.3 849.6 883.3 833.3V650C883.3 609.9 872.4 570.6 851.8 536.3 839.4 515.1 833.1 490.9 833.3 466.4V416.7H866.7C882.9 416.7 898.1 408.8 907.5 395.5S919.2 365.3 913.8 350H950C977.6 350 1000 327.6 1000 300 1000 272.4 977.6 250 950 250ZM150 350V166.7C150 157.5 157.5 150 166.7 150S183.3 157.5 183.3 166.7V283.3C183.3 292.5 190.8 300 200 300S216.7 292.5 216.7 283.3V100C216.7 90.8 224.1 83.3 233.3 83.3S250 90.8 250 100V283.3C250 292.5 257.5 300 266.7 300S283.3 292.5 283.3 283.3V50C283.3 40.8 290.8 33.3 300 33.3 309.2 33.3 316.7 40.8 316.7 50V283.3C316.7 292.5 324.1 300 333.3 300S350 292.5 350 283.3V133.3C350 124.1 357.5 116.7 366.7 116.7S383.3 124.1 383.3 133.3V383.3C383.3 392.5 390.8 400 400 400H432.3C428.7 429.1 414 455.7 391.4 474.3 375.8 487 366.8 506 366.7 526.1V583.3H200V533.6C200.3 503 192.2 472.9 176.8 446.6 159.3 417.4 150 384 150 350ZM465.5 400H473.9C484.1 400.1 493.7 404.8 500.1 412.7 525.2 442.7 561.1 461.7 600 465.5V473.9C599.9 484.1 595.2 493.7 587.3 500.1 557.3 525.2 538.3 561.1 534.5 600H526.1C515.9 599.9 506.3 595.2 499.9 587.3 474.8 557.3 438.9 538.3 400 534.5V526.1C400.1 515.9 404.8 506.3 412.7 499.9 442.7 474.8 461.7 438.9 465.5 400ZM583.3 800H533.6C503 799.7 472.9 807.8 446.6 823.2 417.4 840.7 384 850 350 850H166.7C157.5 850 150 842.5 150 833.3S157.5 816.7 166.7 816.7H283.3C292.5 816.7 300 809.2 300 800S292.5 783.3 283.3 783.3H100C90.8 783.3 83.3 775.9 83.3 766.7 83.3 757.5 90.8 750 100 750H283.3C292.5 750 300 742.5 300 733.3S292.5 716.7 283.3 716.7H50C40.8 716.7 33.3 709.2 33.3 700S40.8 683.3 50 683.3H283.3C292.5 683.3 300 675.9 300 666.7S292.5 650 283.3 650H133.3C124.1 650 116.7 642.5 116.7 633.3S124.1 616.7 133.3 616.7H383.3C392.5 616.7 400 609.2 400 600V567.7C429.1 571.3 455.7 586 474.3 608.7 487 624.2 506 633.2 526.1 633.3H583.3V800ZM850 650V833.3C850 842.5 842.5 850 833.3 850S816.7 842.5 816.7 833.3V716.7C816.7 707.5 809.2 700 800 700S783.3 707.5 783.3 716.7V900C783.3 909.2 775.9 916.7 766.7 916.7 757.5 916.7 750 909.2 750 900V716.7C750 707.5 742.5 700 733.3 700S716.7 707.5 716.7 716.7V950C716.7 959.2 709.2 966.7 700 966.7S683.3 959.2 683.3 950V716.7C683.3 707.5 675.9 700 666.7 700S650 707.5 650 716.7V866.7C650 875.9 642.5 883.3 633.3 883.3S616.7 875.9 616.7 866.7V616.7C616.7 607.5 609.2 600 600 600H567.7C571.3 570.9 586 544.3 608.7 525.7 624.2 513 633.2 494 633.3 473.9V416.7H800V466.4C799.7 497 807.8 527.1 823.2 553.4 840.7 582.6 850 616 850 650ZM950 316.7H716.7C707.5 316.7 700 324.1 700 333.3S707.5 350 716.7 350H866.7C875.9 350 883.3 357.5 883.3 366.7S875.9 383.3 866.7 383.3H616.7C607.5 383.3 600 390.8 600 400V432.3C570.9 428.7 544.3 414 525.7 391.4 513 375.8 494 366.8 473.9 366.7H416.7V200H466.4C497 200.3 527.1 192.2 553.4 176.8 582.6 159.3 616 150 650 150H833.3C842.5 150 850 157.5 850 166.7S842.5 183.3 833.3 183.3H716.7C707.5 183.3 700 190.8 700 200S707.5 216.7 716.7 216.7H900C909.2 216.7 916.7 224.1 916.7 233.3S909.2 250 900 250H716.7C707.5 250 700 257.5 700 266.7S707.5 283.3 716.7 283.3H950C959.2 283.3 966.7 290.8 966.7 300 966.7 309.2 959.2 316.7 950 316.7Z",
        "width": 1000
      },
      "search": [
        "donation"
      ]
    },
    {
      "uid": "3a8bf9ef53728a5a17c35872be443cc4",
      "css": "drawing",
      "code": 59393,
      "src": "custom_icons",
      "selected": true,
      "svg": {
        "path": "M983.3 200H933.3V233.4H966.7V717.7L893 665 873.6 692.2 966.7 758.6V800H816.7C807.5 800 800 807.5 800 816.7V966.7H83.3C55.7 966.7 33.3 944.3 33.3 916.7S55.7 866.7 83.3 866.7H116.7C125.9 866.7 133.3 859.2 133.3 850V741L366.7 538.7 589.2 729.4C595.5 734.8 604.8 734.7 611.1 729.2L723.6 629.2 701.4 604.2 599.8 694.5 377.5 504.1C371.3 498.7 362.1 498.7 355.8 504.1L133.3 696.9V233.4H700V200H133.3V116.7C133.3 107.5 125.9 100 116.7 100H83.3C37.3 100.1 0.1 137.4 0 183.4V916.7C0.1 962.7 37.3 1000 83.3 1000H816.7C821.1 1000 825.3 998.3 828.5 995.1L995.1 828.5C996.5 827.1 997.6 825.4 998.5 823.6 998.7 823.1 998.8 822.6 999 822.1 999.5 820.7 999.8 819.2 999.9 817.7 999.9 817.4 1000.1 817 1000.1 816.7V216.7C1000.1 212.3 998.3 208 995.2 204.9 992 201.8 987.8 200 983.3 200ZM33.3 216.7V183.4C33.3 155.8 55.7 133.4 83.3 133.4H100V833.4H83.3C65.3 833.3 47.7 839.2 33.3 850ZM833.3 943.1V833.4H943.1ZM833.3 943.1M466.7 416.7C466.7 471.9 511.4 516.7 566.7 516.7S666.7 471.9 666.7 416.7C666.7 361.5 621.9 316.7 566.7 316.7 511.5 316.8 466.7 361.5 466.7 416.7ZM633.3 416.7C633.3 453.5 603.5 483.4 566.7 483.4S500 453.5 500 416.7 529.9 350 566.7 350 633.3 379.9 633.3 416.7ZM633.3 416.7M239.3 703.9L339.3 620.6 360.7 646.2 260.7 729.5ZM239.3 703.9M671.5 738.2L721.5 688.2 745.1 711.8 695.1 761.8ZM671.5 738.2M833.3 733.4V688.4L897.2 592.6C899 589.8 900 586.6 900 583.4V83.4C900 37.3 862.7 0 816.7 0S733.3 37.3 733.3 83.4V583.4C733.3 586.7 734.3 589.9 736.1 592.6L800 688.4V733.4ZM866.7 566.7H833.3V200H866.7ZM766.7 83.4C766.7 55.8 789.1 33.4 816.7 33.4S866.7 55.8 866.7 83.4V100H766.7ZM766.7 133.4H866.7V166.7H766.7ZM766.7 200H800V566.7H766.7ZM781.1 600H852.2L816.7 653.4ZM781.1 600",
        "width": 1000
      },
      "search": [
        "drawing"
      ]
    },
    {
      "uid": "8308b484f67586201ecb56df7d3dde8e",
      "css": "facebook-logo",
      "code": 59394,
      "src": "custom_icons",
      "selected": true,
      "svg": {
        "path": "M750 0.2L620.3 0C474.6 0 380.5 96.6 380.5 246.1V359.6H250.1C238.8 359.6 229.7 368.7 229.7 380V544.4C229.7 555.6 238.8 564.8 250.1 564.8H380.5V979.6C380.5 990.9 389.6 1000 400.8 1000H571C582.2 1000 591.3 990.9 591.3 979.6V564.8H743.8C755.1 564.8 764.2 555.6 764.2 544.4L764.2 380C764.2 374.6 762.1 369.4 758.3 365.6 754.5 361.7 749.3 359.6 743.8 359.6H591.3V263.4C591.3 217.1 602.4 193.7 662.6 193.7L749.9 193.6C761.2 193.6 770.3 184.5 770.3 173.3V20.6C770.3 9.4 761.2 0.2 750 0.2Z",
        "width": 1000
      },
      "search": [
        "facebook-logo"
      ]
    },
    {
      "uid": "6a598f9ed54606eb5257a58790b9b27b",
      "css": "home-icon-silhouette",
      "code": 59395,
      "src": "custom_icons",
      "selected": true,
      "svg": {
        "path": "M983.2 455.2L831.7 303.7V128.6C831.7 96.9 806 71.3 774.3 71.3 742.7 71.3 717 96.9 717 128.6V189L604.2 76.2C548.4 20.4 451.4 20.5 395.7 76.3L16.8 455.2C-5.6 477.6-5.6 513.9 16.8 536.3 39.2 558.7 75.5 558.7 97.9 536.3L476.8 157.3C489.1 145.1 510.9 145.1 523.2 157.3L902.1 536.3C913.4 547.5 928 553.1 942.7 553.1 957.3 553.1 972 547.5 983.2 536.3 1005.6 513.9 1005.6 477.6 983.2 455.2ZM519.9 266.1C508.9 255.1 491.1 255.1 480.1 266.1L146.8 599.3C141.5 604.6 138.5 611.8 138.5 619.3V862.3C138.5 919.3 184.8 965.6 241.8 965.6H406.8V710H593.1V965.6H758.2C815.2 965.6 861.4 919.3 861.4 862.3V619.3C861.4 611.8 858.5 604.6 853.2 599.3L519.9 266.1Z",
        "width": 1000
      },
      "search": [
        "home-icon-silhouette"
      ]
    },
    {
      "uid": "a0c99dca3e2e5a0d703686eea8f76153",
      "css": "instagram-logo",
      "code": 59396,
      "src": "custom_icons",
      "selected": true,
      "svg": {
        "path": "M724 0H276C123.8 0 0 123.8 0 276V724C0 876.2 123.8 1000 276 1000H724C876.2 1000 1000 876.2 1000 724V276C1000 123.8 876.2 0 724 0ZM911.3 724C911.3 827.3 827.3 911.3 724 911.3H276C172.7 911.3 88.7 827.3 88.7 724V276C88.7 172.7 172.7 88.7 276 88.7H724C827.3 88.7 911.3 172.7 911.3 276V724ZM500 242.3C357.9 242.3 242.3 357.9 242.3 500 242.3 642.1 357.9 757.7 500 757.7S757.7 642.1 757.7 500C757.7 357.9 642.1 242.3 500 242.3ZM500 668.9C406.8 668.9 331 593.2 331 500 331 406.8 406.8 331.1 500 331.1S668.9 406.8 668.9 500C668.9 593.2 593.2 668.9 500 668.9ZM768.5 167.1C751.4 167.1 734.6 174 722.5 186.1 710.4 198.2 703.4 215 703.4 232.2 703.4 249.3 710.4 266.1 722.5 278.2 734.6 290.3 751.4 297.2 768.5 297.2 785.6 297.2 802.4 290.3 814.5 278.2 826.6 266.1 833.5 249.3 833.5 232.2 833.5 215 826.6 198.2 814.5 186.1 802.4 174 785.6 167.1 768.5 167.1Z",
        "width": 1000
      },
      "search": [
        "instagram-logo"
      ]
    },
    {
      "uid": "7b776d28d95ecae0fbdb9b0164927deb",
      "css": "italy",
      "code": 59397,
      "src": "custom_icons",
      "selected": true,
      "svg": {
        "path": "M951.5 642.6C912.4 609.3 866 587.5 819.5 566.7 802.1 559 768.1 557.5 776.4 532.8 790.8 489.6 766 497.9 742.9 498.6 676 500.7 629.3 465.8 608.5 407.4 590.5 357 562 320 515.3 302.5 443.6 275.6 496.5 215 477.1 173.2 468.5 154.4 513 157.7 529.8 143.8 538.1 136.9 550.6 131.8 561.2 131.5 595.1 130.5 585 107.1 579.1 92.8 572 76 597.8 44.6 556.5 41.9 533.6 40.4 500.4 42 489.9 28.3 450-24 407.8 12.3 364.2 11.4 311.2 10.5 289.5 93.7 230.1 52 212 98.3 189.5 108.8 158.5 61.6 157.3 59.8 142.7 62.5 141.7 65.3 127.5 109.8 88.8 102.7 55.9 107 43.9 108.6 27 119.3 29.9 122.9 63 165.4 10.9 206.2 31.7 251.8 53 298.5 106 335.7 139.4 309.2 218.3 246.9 289.7 266.5 316.4 364.3 329.3 411.8 361.7 437.4 395.1 461.6 455.1 505.3 503.7 561.4 584.2 582.6 638.7 597.1 681.1 658.7 734.5 693.2 768.4 715.1 777.2 762 775 797.7 773.8 819.1 744.3 844.1 709.3 854.6 645.2 874 582.6 863.5 519.5 861.3 499.7 860.6 487.3 864.1 484 883.9 480.9 903 490.9 911.4 509 919 553.6 937.4 597.9 957.7 639.9 981.4 658.7 992 675.2 1008.1 696 995.2 716.8 982.2 716 960.2 706.1 935.6 709.3 914.8 708.3 875.8 736.1 880.2 797.7 889.9 796.5 837.2 824.9 812.6 872.4 771.4 881.2 746.8 824.1 712.3 819.7 709.7 822.3 690.3 826.1 680.1 840.2 642 881.3 642 923 680 935.2 691.2 943.1 717.8 964.2 695.9 984 675.6 967.9 656.7 951.5 642.6ZM217.7 574.5C189.4 585.5 103.6 590.6 158 668.6 165.4 679.1 159 699.3 159 721.8 153.9 747 143.2 790.8 190.4 788 221.8 786.2 272.7 774.1 263.7 713.6 260 690 276 663.4 272.6 639.7 268 608.4 261.2 557.5 217.7 574.5Z",
        "width": 1000
      },
      "search": [
        "italy"
      ]
    },
    {
      "uid": "139b68d2a648de55b599f596e4234fe7",
      "css": "mic",
      "code": 59398,
      "src": "custom_icons",
      "selected": true,
      "svg": {
        "path": "M510 400.2C555.8 446 615.8 468.9 675.8 468.9 708.1 468.9 740.5 462.2 770.6 448.9L461.3 139.6C423.3 225.6 439.5 329.8 510 400.2ZM860.9 378.2C932.5 286.3 926 153.2 841.5 68.7 795.7 22.9 735.7 0 675.8 0 625 0 574.2 16.4 532 49.2L512.8 30.1C501.4 18.6 482.8 18.6 471.4 30.1 460 41.5 460 60.1 471.4 71.5L838.7 438.9C844.4 444.6 851.9 447.4 859.4 447.4 866.9 447.4 874.4 444.6 880.1 438.9 891.6 427.4 891.6 408.9 880.1 397.4ZM176.9 774.8L181.8 769.9C181.8 769.9 181.8 769.9 181.8 769.9 189.4 777.4 199.4 781.2 209.4 781.2 218.3 781.2 227.2 778.3 234.5 772.2L559.5 503.5C525.5 488.9 495 468.1 468.6 441.7S421.4 384.7 406.7 350.7L138.1 675.8C125.2 691.4 126.3 714.1 140.4 728.5 140.4 728.5 140.4 728.5 140.4 728.5L135.5 733.4C122.7 746.2 112.6 760.7 105.2 776.2 77.3 834.3 87.4 906.2 135.5 954.3 165.9 984.8 205.9 1000 245.9 1000 285.9 1000 325.9 984.8 356.4 954.3L617.9 692.7C630.4 680.2 647 673.3 664.7 673.3 682.4 673.3 699 680.2 711.5 692.7 737.2 718.5 737.2 760.5 711.5 786.2L612 885.7C600.5 897.2 600.5 915.7 612 927.2 623.4 938.6 642 938.6 653.4 927.2L752.9 827.7C801.5 779.1 801.5 699.9 752.9 651.3 729.3 627.7 698 614.7 664.7 614.7S600.1 627.7 576.5 651.3L315 912.9C276.9 950.9 215 950.9 176.9 912.9 158.5 894.4 148.3 869.9 148.3 843.8 148.3 835.9 149.3 828.2 151.1 820.6 155.3 803.4 164.1 787.7 176.9 774.8Z",
        "width": 1000
      },
      "search": [
        "mic"
      ]
    },
    {
      "uid": "c22ca4603d2ac1c873b32d053ad3ddab",
      "css": "pencil-edit-button",
      "code": 59399,
      "src": "custom_icons",
      "selected": true,
      "svg": {
        "path": "M621.8 168.5L825.2 371.9 310.3 886.8 107 683.4 621.8 168.5ZM979.6 119.5L888.9 28.7C853.8-6.3 796.9-6.3 761.7 28.7L674.8 115.6 878.2 319.1 979.6 217.7C1006.8 190.5 1006.8 146.6 979.6 119.5ZM0.6 969.4C-3.1 986 11.9 1000.9 28.6 996.9L255.3 941.9 51.9 738.5 0.6 969.4Z",
        "width": 1000
      },
      "search": [
        "pencil-edit-button"
      ]
    },
    {
      "uid": "86104522d258fdc626c31ce7f65fbcd3",
      "css": "play-button",
      "code": 59400,
      "src": "custom_icons",
      "selected": true,
      "svg": {
        "path": "M759.4 486.2L392.7 236.2C387.6 232.8 381 232.4 375.5 235.3 370.1 238.2 366.7 243.8 366.7 250V750C366.7 756.2 370.1 761.9 375.6 764.7 378 766 380.7 766.7 383.3 766.7 386.6 766.7 389.9 765.7 392.7 763.8L759.4 513.8C763.9 510.7 766.7 505.5 766.7 500S763.9 489.3 759.4 486.2ZM400 718.5V281.6L720.4 500 400 718.5ZM500 0C224.3 0 0 224.3 0 500S224.3 1000 500 1000 1000 775.7 1000 500 775.7 0 500 0ZM500 966.7C242.7 966.7 33.3 757.3 33.3 500S242.7 33.3 500 33.3 966.7 242.7 966.7 500 757.3 966.7 500 966.7Z",
        "width": 1000
      },
      "search": [
        "play-button"
      ]
    },
    {
      "uid": "0ac43a8da0d9dbb6ed026ab219c93a38",
      "css": "project-management",
      "code": 59401,
      "src": "custom_icons",
      "selected": true,
      "svg": {
        "path": "M985.8 262.6C985.8 262.6 985.8 262.6 985.8 262.6L985.7 262.6 921.2 253.3C912.1 252.1 905.8 243.7 907.1 234.6 907.7 230.2 910 226.3 913.6 223.6L965.7 184.5C973.1 179 974.5 168.6 969 161.3L909.3 81.6C903.8 74.3 893.4 72.8 886.1 78.3L833.9 117.5C826.6 123 816.2 121.6 810.7 114.3 808 110.7 806.8 106.2 807.5 101.8L816.7 37.3C818 28.2 811.7 19.8 802.6 18.5 802.6 18.5 802.6 18.5 802.6 18.5L704.1 4.4C695.1 3.1 686.6 9.4 685.3 18.5 685.3 18.5 685.3 18.5 685.3 18.5L676.1 83.1C674.8 92.1 666.4 98.4 657.3 97.1 653 96.5 649.1 94.2 646.4 90.7L607.3 38.5C601.8 31.2 591.4 29.7 584.1 35.2L534.2 72.6C511.7 70.2 488.9 70.2 466.3 72.6 318.6 89.5 202.8 207.3 188.4 355.3 187.9 360 187.8 364.7 187.5 369.3H182.5C174.7 369.3 167.9 374.9 166.3 382.6L154.8 437.1 108.9 405.4C102.3 400.9 93.4 401.7 87.8 407.4L38 457.1C32.3 462.8 31.5 471.7 36.1 478.3L67.6 524.1 13 535.6C5.4 537.3 0 544 0 551.8V618.2C0 626.1 5.5 632.8 13.2 634.5L67.7 645.9 36.2 691.8C31.7 698.4 32.5 707.2 38.1 712.9L87.9 762.7C93.6 768.4 102.5 769.2 109 764.6L154.9 733 166.4 787.5C167.9 795.3 174.7 800.8 182.6 800.8H249C256.8 800.8 263.6 795.3 265.2 787.6L276.7 733.1 322.5 764.6C329.1 769.2 338 768.4 343.7 762.7L369.4 736.9V784.1C369.5 807.7 382.1 829.5 402.6 841.3V933.5C402.6 970.1 432.3 999.9 469 999.9H535.4C572 999.9 601.7 970.1 601.7 933.5V841.3C622.2 829.5 634.8 807.7 634.9 784.1V718.5C635.4 690.8 649.8 665.3 673.3 650.7 687.1 641.8 700.1 631.8 712.4 620.9L690.2 596.1C679.3 606 667.6 614.9 655.3 622.9 622.3 643.6 602.1 679.6 601.7 718.5V784.1C601.7 802.5 586.9 817.3 568.5 817.3H435.8C417.5 817.3 402.6 802.5 402.6 784.1V717.1C402.2 678.9 382.4 643.6 350 623.4 218.5 540.8 178.8 367.2 261.5 235.7 312.8 154.1 402.2 104.4 498.6 104.1 498.4 104.7 498.1 105.3 498 105.9 497.3 110.2 498.5 114.7 501.1 118.2L540.2 170.3C544.4 175.7 544.8 183 541.2 188.8 537.8 194.5 531.3 197.7 524.6 196.7L460.1 187.5C451 186.2 442.6 192.5 441.3 201.6 441.3 201.6 441.3 201.6 441.3 201.6L427.2 300.1C425.9 309.2 432.2 317.6 441.3 318.9 441.3 318.9 441.3 318.9 441.3 318.9L505.9 328.2C514.9 329.4 521.2 337.8 519.9 346.9 519.3 351.3 517 355.2 513.5 357.9L461.3 397C454 402.5 452.5 412.9 458 420.2L517.7 499.8C523.2 507.2 533.6 508.7 541 503.2L593.1 464C600.5 458.6 610.9 460.1 616.4 467.4 619 470.9 620.1 475.3 619.5 479.7L610.3 544.2C609 553.3 615.3 561.7 624.4 563 624.4 563 624.4 563 624.4 563L722.9 577.1C723.7 577.2 724.5 577.2 725.3 577.2 733.5 577.2 740.5 571.2 741.7 563L750.9 498.4C752.2 489.4 760.6 483.1 769.7 484.4 774 485 778 487.3 780.6 490.8L819.7 543C825.2 550.3 835.6 551.8 843 546.3L922.6 486.6C930 481.1 931.4 470.7 925.9 463.3L886.8 411.2C882.7 405.8 882.3 398.5 885.8 392.8 889.2 386.9 895.8 383.7 902.4 384.8L967 394C976 395.3 984.5 389 985.8 379.9 985.8 379.9 985.8 379.9 985.8 379.9L999.8 281.4C1001.1 272.3 994.8 263.9 985.8 262.6ZM435.8 850.5H568.5V883.7H435.8V850.5ZM435.8 916.9H568.5V933.5C568.5 951.8 553.7 966.7 535.4 966.7H469C450.7 966.7 435.8 951.8 435.8 933.5V916.9ZM303.7 630.7C312.8 638.1 322.2 645 332.1 651.4 347.7 661.3 359.5 676.3 365.5 693.9L329.9 729.4 295.4 705.6C280.3 695.2 259.7 699 249.3 714.1 246.8 717.7 245 721.8 244.1 726.1L235.4 767.6H196L187.3 726.2C183.5 708.2 165.9 696.8 148 700.5 143.7 701.4 139.6 703.2 136 705.7L101.5 729.4 71.3 699.2 95 664.8C105.4 649.7 101.6 629 86.6 618.6 82.9 616.1 78.9 614.4 74.6 613.5L33.2 604.7V565.3L74.6 556.6C92.5 552.8 103.9 535.2 100.1 517.3 99.2 513 97.5 509 95 505.4L71.3 470.8 101.5 440.7 136 464.4C151.1 474.8 171.8 471 182.2 455.9 184.7 452.3 186.4 448.2 187.3 443.9L190.2 430.1C192.9 449.2 197.3 468.1 203.4 486.4 148.8 492.9 109.8 542.4 116.3 597 122.8 651.6 172.3 690.6 226.9 684.1 259.8 680.2 288.6 660.2 303.7 630.7ZM277.9 607.4C265.5 641.8 227.6 659.7 193.1 647.3 158.7 634.9 140.8 596.9 153.2 562.5 162.7 536.1 187.7 518.6 215.7 518.7 215.9 518.7 216.1 518.7 216.3 518.7 231.6 551.6 252.4 581.6 277.9 607.4ZM955.2 358.8L907 351.9C879.8 348 854.6 366.9 850.7 394.1 848.9 407.2 852.3 420.5 860.2 431L889.3 469.9 836.2 509.7 807.1 470.9C790.6 448.9 759.4 444.4 737.4 460.9 726.8 468.8 719.8 480.6 718 493.7L711.2 541.9 645.6 532.5 652.4 484.4C656.3 457.2 637.4 431.9 610.2 428 597.1 426.2 583.8 429.6 573.3 437.5L534.4 466.7 494.6 413.6 533.4 384.4C555.4 367.9 559.9 336.7 543.4 314.7 535.5 304.1 523.7 297.2 510.6 295.3L462.5 288.4 471.9 222.7 520 229.6C547.2 233.5 572.4 214.6 576.3 187.4 578.2 174.3 574.8 161 566.9 150.4L537.6 111.5 590.7 71.7 619.9 110.6C636.4 132.6 667.6 137 689.6 120.5 700.1 112.6 707.1 100.8 709 87.8L715.9 39.6 781.6 49 774.7 97.1C770.8 124.4 789.7 149.6 816.9 153.5 830 155.3 843.3 151.9 853.8 144L892.7 114.8 932.5 167.9 893.7 197.1C871.7 213.6 867.2 244.8 883.7 266.8 891.6 277.4 903.4 284.3 916.5 286.2L964.6 293.1 955.2 358.8ZM713.5 158C640.2 158 580.8 217.4 580.8 290.7 580.8 364 640.2 423.5 713.5 423.5 786.8 423.5 846.2 364 846.2 290.7 846.2 217.5 786.8 158.1 713.5 158ZM713.5 390.3C658.5 390.3 613.9 345.7 613.9 290.7S658.5 191.2 713.5 191.2C768.5 191.2 813.1 235.7 813.1 290.7 813 345.7 768.5 390.2 713.5 390.3ZM429.6 571.4C327.2 531.4 276.6 415.9 316.6 313.5 332.1 273.8 359.9 240.1 396 217.4L378.2 189.3C269.7 257.7 237.1 401.2 305.5 509.7 332 551.8 371.3 584.2 417.5 602.3 458.5 618 485.6 657.3 485.6 701.2H518.8C518.8 643.6 483.3 592 429.6 571.4Z",
        "width": 1000
      },
      "search": [
        "project-management"
      ]
    },
    {
      "uid": "b4253763f777c029e031004f272fe2d9",
      "css": "shopping-cart-black-shape",
      "code": 59402,
      "src": "custom_icons",
      "selected": true,
      "svg": {
        "path": "M769.2 846.2C769.2 867.4 776.8 885.5 791.8 900.5 806.8 915.6 824.9 923.1 846.2 923.1 867.4 923.1 885.5 915.6 900.5 900.5 915.6 885.5 923.1 867.4 923.1 846.2S915.6 806.8 900.5 791.8C885.5 776.8 867.4 769.2 846.2 769.2 824.9 769.2 806.8 776.8 791.8 791.8 776.8 806.8 769.2 824.9 769.2 846.2ZM988.6 165.3C981 157.6 972 153.8 961.5 153.8H239.8C239.4 151 238.5 145.9 237.1 138.5 235.7 131.1 234.6 125.2 233.8 120.8 233 116.4 231.5 111.1 229.3 104.9 227.1 98.7 224.5 93.7 221.5 90.1 218.5 86.5 214.4 83.4 209.4 80.8 204.4 78.2 198.7 76.9 192.3 76.9H38.5C28 76.9 19 80.7 11.4 88.3 3.8 95.9 0 105 0 115.4S3.8 134.8 11.4 142.4C19 150 28.1 153.8 38.5 153.8H161.1L267.4 648.4C266.6 650 262.5 657.6 255.1 671.3 247.7 684.9 241.8 696.8 237.4 707 233 717.3 230.8 725.2 230.8 730.8 230.8 741.2 234.6 750.2 242.2 757.8 249.8 765.4 258.8 769.2 269.2 769.2H307.7 846.2 884.6C895 769.2 904 765.4 911.6 757.8 919.3 750.2 923.1 741.2 923.1 730.8 923.1 720.4 919.3 711.3 911.6 703.7 904 696.1 895 692.3 884.6 692.3H331.7C341.3 673.1 346.1 660.3 346.1 653.9 346.1 649.8 345.6 645.4 344.6 640.6S342.4 630.5 341 624.7C339.6 618.9 338.7 614.6 338.3 611.8L965.8 538.5C975.8 537.3 984 533 990.4 525.5 996.8 518.1 1000 509.6 1000 500V192.3C1000 181.9 996.2 172.9 988.6 165.3ZM230.8 846.2C230.8 867.4 238.3 885.5 253.3 900.5 268.3 915.6 286.4 923.1 307.7 923.1 328.9 923.1 347 915.6 362.1 900.5 377.1 885.5 384.6 867.4 384.6 846.2S377.1 806.8 362.1 791.8C347 776.8 328.9 769.2 307.7 769.2 286.5 769.2 268.3 776.8 253.3 791.8 238.3 806.8 230.8 824.9 230.8 846.2Z",
        "width": 1000
      },
      "search": [
        "shopping-cart-black-shape"
      ]
    },
    {
      "uid": "4d25a8c72193368afd0e8745ed98474b",
      "css": "story",
      "code": 59403,
      "src": "custom_icons",
      "selected": true,
      "svg": {
        "path": "M837.8 829.1L738.6 729.8V16.8C738.6 7.5 731.1 0 721.8 0H218.6C218.3 0 218 0.2 217.7 0.2 216.2 0.3 214.6 0.6 213.2 1.1 212.7 1.2 212.2 1.4 211.7 1.6 209.9 2.4 208.2 3.6 206.7 5L5.4 206.2C4 207.6 2.9 209.3 2.1 211.1 1.9 211.7 1.7 212.2 1.5 212.7 1 214.1 0.8 215.6 0.7 217 0.7 217.4 0.5 217.7 0.5 218.1V855.3C0.5 864.6 8 872.1 17.2 872.1H596.2L695.5 971.3C714.3 990.3 739.9 1001 766.6 1000.9 807.4 1001 844.1 976.4 859.7 938.8 875.3 901.1 866.6 857.8 837.8 829.1ZM695.6 924.1L434.6 663.1 529.6 568.1 790.6 829.2ZM420.4 629.9L397.6 531.2 496.3 553.9ZM201.9 57.3V201.3H57.9ZM34.2 838.6V234.8H218.6C227.9 234.8 235.4 227.3 235.4 218V33.5H705V696.2L541.5 532.5 541.3 532.4C539.9 531.1 538.3 530 536.5 529.3 536.1 529.1 535.6 528.9 535.2 528.7 534.6 528.5 534 528.2 533.4 528L379.1 492.5C373.4 491.2 367.5 492.9 363.4 497 359.3 501.1 357.6 507 358.9 512.6L394.5 666.9C394.7 667.5 394.9 668.1 395.2 668.7 395.4 669.2 395.5 669.6 395.7 670.1 396.5 671.9 397.6 673.5 398.9 674.9L399 675 562.7 838.6ZM814 947.7C801.5 960.3 784.4 967.3 766.7 967.3S731.9 960.3 719.3 947.7L727.2 939.8 814.2 852.8C826.8 865.4 833.8 882.4 833.8 900.2 833.8 918 826.7 935.1 814 947.6ZM814 947.7M151.6 335.4H587.6C596.9 335.4 604.4 327.9 604.4 318.7S596.9 301.9 587.6 301.9H151.6C142.3 301.9 134.8 309.4 134.8 318.7S142.3 335.4 151.6 335.4ZM151.6 335.4M151.6 436.1H587.6C596.9 436.1 604.4 428.5 604.4 419.3S596.9 402.5 587.6 402.5H151.6C142.3 402.5 134.8 410 134.8 419.3S142.3 436.1 151.6 436.1ZM151.6 436.1M269 503.1H151.6C142.3 503.1 134.8 510.7 134.8 519.9S142.3 536.7 151.6 536.7H269C278.2 536.7 285.7 529.2 285.7 519.9S278.2 503.1 269 503.1ZM269 503.1",
        "width": 1000
      },
      "search": [
        "story"
      ]
    },
    {
      "uid": "3805315f7682e4121e7cae78ee23c274",
      "css": "toggle",
      "code": 59404,
      "src": "custom_icons",
      "selected": true,
      "svg": {
        "path": "M740 201.8C665 201.8 596.3 227.4 540.3 269.1H269.1C120.7 269.1 0 389.8 0 538.2S120.7 807.3 269.1 807.3H540.3C596.3 849 665 874.6 740 874.6 925.5 874.6 1076.4 723.7 1076.4 538.2S925.5 201.8 740 201.8ZM67.3 538.2C67.3 426.9 157.8 336.4 269.1 336.4H472.7C430 392.8 403.7 462.2 403.7 538.2S430 683.6 472.7 740H269.1C157.8 740 67.3 649.5 67.3 538.2ZM740 807.3C591.7 807.3 470.9 686.6 470.9 538.2S591.7 269.1 740 269.1 1009.2 389.8 1009.2 538.2 888.4 807.3 740 807.3Z",
        "width": 1000
      },
      "search": [
        "toggle"
      ]
    },
    {
      "uid": "da0f93591c9972751ecc74f8c75a1df2",
      "css": "twitter",
      "code": 59405,
      "src": "custom_icons",
      "selected": true,
      "svg": {
        "path": "M1000 189.9C962.8 206.3 923.2 217.1 881.9 222.3 924.4 196.9 956.8 157.1 972.1 109 932.4 132.6 888.7 149.3 842.1 158.6 804.4 118.6 750.8 93.8 692.3 93.8 578.8 93.8 487.4 185.9 487.4 298.8 487.4 315.1 488.8 330.7 492.2 345.6 321.8 337.3 170.9 255.6 69.6 131.1 51.9 161.8 41.6 196.9 41.6 234.8 41.6 305.8 78.1 368.7 132.6 405.1 99.7 404.5 67.4 394.9 40 379.9 40 380.5 40 381.3 40 382.1 40 481.8 111.1 564.5 204.2 583.6 187.6 588.1 169.4 590.3 150.5 590.3 137.4 590.3 124.1 589.6 111.7 586.8 138.2 668 213.6 727.7 303.2 729.6 233.5 784.2 144.9 817.1 49.1 817.1 32.2 817.1 16.1 816.3 0 814.3 90.8 872.8 198.4 906.3 314.5 906.3 691.8 906.3 898 593.8 898 322.9 898 313.8 897.7 305.1 897.3 296.4 937.9 267.5 972.1 231.4 1000 189.9Z",
        "width": 1000
      },
      "search": [
        "twitter"
      ]
    },
    {
      "uid": "a8f35eefb647fb39de81b48ca65fce9e",
      "css": "writing",
      "code": 59406,
      "src": "custom_icons",
      "selected": true,
      "svg": {
        "path": "M48.6 612.5C56.1 616.2 64.2 618.8 72.5 620.2L59.5 638.7C56.9 642.4 55.2 646.7 54.5 651.2L35.3 781.1C33.7 792.1 38.4 803.1 47.5 809.4 56.6 815.8 68.5 816.5 78.3 811.2L187.1 752.3C202.1 779.5 231 797.9 264.2 797.9 286.7 797.9 307.3 789.4 322.9 775.4 338.5 789.4 359.1 797.9 381.6 797.9 430.1 797.9 469.7 758.4 469.7 709.8V698.6C524.3 725.1 585.1 739.2 645.8 739.2 708.5 739.2 770.7 724.8 825.8 697.6V768.5C825.8 778.7 831.1 788.1 839.7 793.5 848.4 798.8 859.2 799.3 868.3 794.8L985.7 736.1C995.7 731.1 1002 720.9 1002 709.8V357.6C1002 341.3 988.8 328.2 972.6 328.2 925.8 328.2 812.4 328.2 770 328.2L562.9 226.9 641.6 114.5C650.9 101.2 647.7 82.9 634.4 73.6L538.2 6.3C524.9-3 506.6 0.2 497.3 13.5 484.9 31.2 405.6 144.5 393.2 162.2 369.1 149.5 340.3 149.6 322 157.5L210.3 206C194.1 213.1 180.5 224.7 171 239.6L10.7 491.7C0.3 508.1-4 536.2 4.5 561.5 11.9 583.9 27.6 601.9 48.6 612.5ZM102 731.6L111.6 666.7 137.9 629.2C149.1 645.6 164.4 659 182.3 668L159.7 700.4ZM264.2 739.2C248 739.2 234.8 726 234.8 709.8V695.5L245.3 680.5H293.5V709.8C293.5 726 280.4 739.2 264.2 739.2ZM381.6 739.2C365.4 739.2 352.2 726 352.2 709.8V680.5H410.9V709.8C410.9 726 397.8 739.2 381.6 739.2ZM943.2 691.7L884.5 721V386.9H943.2ZM750.3 383.9C754.3 385.9 758.7 386.9 763.2 386.9H825.8V632.6C806 640.3 744.6 680.5 645.8 680.5 541 680.5 476.5 634.1 453.4 624.8 449.2 622.8 444.6 621.8 440.3 621.8H234.8C204.8 621.8 180 599.1 176.5 570 177.4 565.7 177.4 561.4 176.4 557.2 179.3 527.6 204.4 504.3 234.8 504.3H416C477.4 504.3 535.1 480.4 578.5 437 589.9 425.6 589.9 407 578.5 395.5 567 384 548.4 384 537 395.5 504.6 427.8 461.7 445.6 416 445.6H409.8L528.8 275.6ZM461.2 167.4L509.3 201.1 338.1 445.6H266.4C291.4 410 438.3 200.1 461.2 167.4ZM528.6 71.2L576.7 104.9 543 153 494.9 119.3ZM61.2 521.7L220.6 271.1C223.7 266.1 228.3 262.2 233.7 259.9L344 212C348.9 210.5 353.9 210.4 358.7 211.5L187.9 455.4C151.8 471.3 125.1 504.7 118.8 544.9 113.4 559.9 90.1 567.6 74.9 559.9 60.6 552.8 54.9 535.8 61.2 521.7ZM61.2 521.7",
        "width": 1000
      },
      "search": [
        "writing"
      ]
    },
    {
      "uid": "f4f77f7f62434ff8058b1cf8805ae6d1",
      "css": "audio-speaker-on",
      "code": 59407,
      "src": "custom_icons",
      "selected": true,
      "svg": {
        "path": "M415.4 124.1L225.5 266.3H52C23.4 266.3 0 289.7 0 318.4V680.9C0 709.5 23.4 732.9 52 732.9H225.5L415.4 875.2C450.1 901.2 498.7 876.9 498.7 833.5V165.7C498.7 122.3 449.3 98.1 415.4 124.1ZM670.4 209.1C647 185.7 608 185.7 584.6 209.1 561.2 232.5 561.2 271.5 584.6 294.9 697.3 407.7 697.3 590.7 584.6 703.4 561.2 726.9 561.2 765.9 584.6 789.3 596.7 801.4 612.3 806.6 627.1 806.6S658.3 800.6 669.6 788.4C830.9 629.7 830.9 369.5 670.4 209.1ZM738.1 72.9C714.7 96.3 714.7 135.4 738.1 158.8 829.1 249.8 879.5 370.4 879.5 499.6S829.1 749.4 738.1 840.5C714.7 863.9 714.7 902.9 738.1 926.3 750.2 938.5 765.8 944.5 780.6 944.5 796.2 944.5 811.8 938.5 823.1 927.2 936.7 813.6 1000 661.8 1000 500.5 1000 339.2 937.5 188.3 823.1 73.8 800.5 49.5 762.4 49.5 738.1 72.9Z",
        "width": 1000
      },
      "search": [
        "audio-speaker-on"
      ]
    },
    {
      "uid": "f9582206962a9833370c0ae272464d60",
      "css": "calendar",
      "code": 59408,
      "src": "custom_icons",
      "selected": true,
      "svg": {
        "path": "M882.8 78.1H835.9V0H757.8V78.1H242.2V0H164.1V78.1H117.2C52.6 78.1 0 130.7 0 195.3V882.8C0 947.4 52.6 1000 117.2 1000H882.8C947.4 1000 1000 947.4 1000 882.8V195.3C1000 130.7 947.4 78.1 882.8 78.1ZM921.9 882.8C921.9 904.4 904.4 921.9 882.8 921.9H117.2C95.6 921.9 78.1 904.4 78.1 882.8V367.2H921.9V882.8ZM921.9 289.1H78.1V195.3C78.1 173.8 95.6 156.3 117.2 156.3H164.1V234.4H242.2V156.3H757.8V234.4H835.9V156.3H882.8C904.4 156.3 921.9 173.8 921.9 195.3V289.1Z",
        "width": 1000
      },
      "search": [
        "calendar"
      ]
    }
  ]
}