<?xml version="1.0" encoding="utf-8"?>
<!-- Generator: Adobe Illustrator 23.0.6, SVG Export Plug-In . SVG Version: 6.00 Build 0)  -->
<svg version="1.1" id="Capa_1" xmlns="http://www.w3.org/2000/svg" xmlns:xlink="http://www.w3.org/1999/xlink" x="0px" y="0px"
	 viewBox="0 0 512 512" style="enable-background:new 0 0 512 512;" xml:space="preserve">
<g>
	<g>
		<path d="M376.5,120.5h-241C60.8,120.5,0,181.3,0,256s60.8,135.5,135.5,135.5h241c74.7,0,135.5-60.8,135.5-135.5
			S451.2,120.5,376.5,120.5z M376.5,361.5C318.3,361.5,271,314.2,271,256s47.3-105.5,105.5-105.5S482,197.8,482,256
			S434.7,361.5,376.5,361.5z"/>
	</g>
</g>
</svg>
