<?xml version="1.0" encoding="utf-8"?>
<!-- Generator: Adobe Illustrator 23.0.6, SVG Export Plug-In . SVG Version: 6.00 Build 0)  -->
<svg version="1.1" id="Capa_1" xmlns="http://www.w3.org/2000/svg" xmlns:xlink="http://www.w3.org/1999/xlink" x="0px" y="0px"
	 viewBox="0 0 512 512" style="enable-background:new 0 0 512 512;" xml:space="preserve">
<g>
	<g>
		<path d="M135.5,120.5h241c74.7,0,135.5,60.8,135.5,135.5s-60.8,135.5-135.5,135.5h-241C60.8,391.5,0,330.7,0,256
			S60.8,120.5,135.5,120.5z M135.5,361.5c58.2,0,105.5-47.3,105.5-105.5s-47.3-105.5-105.5-105.5S30,197.8,30,256
			S77.3,361.5,135.5,361.5z"/>
	</g>
</g>
</svg>
